<?xml version="1.0" standalone="no"?>
<!DOCTYPE svg PUBLIC "-//W3C//DTD SVG 1.1//EN" "http://www.w3.org/Graphics/SVG/1.1/DTD/svg11.dtd" >
<svg xmlns="http://www.w3.org/2000/svg" width="100%" height="100%">
<metadata>
Created by FontXChange 20110222 at Mon Nov 30 19:17:17 2015
 By EMILIANO HERNANDEZ GARCIA
Copyright (c) 1989, 1992 Adobe Systems Incorporated. All Rights Reserved.Trade Gothic is a trademark of Linotype-Hell AG and/or its subsidiaries.
</metadata>
<defs>
<font id="TradeGothicLT" horiz-adv-x="500" >
  <font-face 
    font-family="TradeGothicLT"
    font-weight="400"
    font-stretch="normal"
    units-per-em="1000"
    panose-1="2 0 5 3 2 0 0 2 0 4"
    ascent="800"
    descent="-200"
    x-height="520"
    cap-height="722"
    bbox="-167 -224 1000 960"
    underline-thickness="50"
    underline-position="-75"
    unicode-range="U+0020-FB02"
  />
<missing-glyph 
 />
    <glyph glyph-name=".notdef" 
 />
    <glyph glyph-name=".null" horiz-adv-x="0" 
 />
    <glyph glyph-name="nonmarkingreturn" horiz-adv-x="305" 
 />
    <glyph glyph-name="space" unicode=" " horiz-adv-x="305" 
 />
    <glyph glyph-name="space" unicode="&#xa0;" horiz-adv-x="305" 
 />
    <glyph glyph-name="dollar" unicode="$" horiz-adv-x="611" 
d="M275 660q-30 1 -54.5 -7t-41.5 -22.5t-26 -35t-8 -45.5q0 -33 11.5 -56t29.5 -38.5t41.5 -24.5t47.5 -14v243zM343 62q27 1 52 10.5t44.5 25t31.5 37.5t12 49q0 33 -12.5 55.5t-32 38t-45 26t-50.5 18.5v-260zM275 799h68v-77q31 -2 58.5 -13.5t51.5 -28t43 -36.5t32 -40
l-52 -42q-22 36 -57 63t-76 35v-261q52 -17 92 -35.5t66.5 -43t40 -56t13.5 -74.5q0 -42 -17 -77t-46 -60t-67.5 -39t-81.5 -14v-124h-68v124q-36 1 -68 13t-59.5 31t-50.5 42t-42 45l58 44q12 -18 29 -37t38 -35.5t45 -28t50 -12.5v279q-27 6 -62 19t-66 36t-52.5 57.5
t-21.5 84.5q0 46 17 81t45.5 57.5t65 34t74.5 11.5v77z" />
    <glyph glyph-name="percent" unicode="%" horiz-adv-x="889" 
d="M227 452q45 0 75 28.5t30 75.5t-30 75.5t-75 28.5t-75 -28.5t-30 -75.5t30 -75.5t75 -28.5zM662 62q45 0 75 28.5t30 75.5t-30 75.5t-75 28.5t-75 -28.5t-30 -75.5t30 -75.5t75 -28.5zM622 732h59l-415 -742h-59zM227 390q-35 0 -65.5 12.5t-53 35t-35.5 53t-13 65.5
t13 65.5t35.5 53t53 35t65.5 12.5t65.5 -12.5t53 -35t35.5 -53t13 -65.5t-13 -65.5t-35.5 -53t-53 -35t-65.5 -12.5zM662 0q-35 0 -65.5 12.5t-53 35t-35.5 53t-13 65.5t13 65.5t35.5 53t53 35t65.5 12.5t65.5 -12.5t53 -35t35.5 -53t13 -65.5t-13 -65.5t-35.5 -53t-53 -35
t-65.5 -12.5z" />
    <glyph glyph-name="ampersand" unicode="&#x26;" horiz-adv-x="667" 
d="M224 585q0 -18 4.5 -36t10.5 -35t13.5 -32t13.5 -26q19 12 38 28t34.5 34t25.5 38t10 41q0 34 -22.5 53.5t-49.5 19.5q-20 0 -34.5 -7.5t-24.5 -19.5t-14.5 -27.5t-4.5 -30.5zM124 192q0 -34 13 -59.5t34 -42t47 -24.5t52 -8q48 0 84 17t62 43q-50 57 -96.5 118
t-85.5 124q-22 -14 -42 -30t-35 -35.5t-24 -44.5t-9 -58zM596 348q-5 -28 -13.5 -58t-19 -58.5t-23 -54t-25.5 -44.5q12 -12 28 -23.5t33 -19.5t32.5 -13t25.5 -5v-72h-26q-14 0 -31.5 5.5t-37 15.5t-38.5 23t-35 28q-36 -39 -85.5 -60.5t-120.5 -21.5q-42 0 -81 14.5
t-69 41.5t-48 65.5t-18 85.5q0 37 14 69t36 59t50 49.5t57 40.5q-11 16 -21 37t-18 44t-13 46.5t-5 45.5q0 31 11 57t32 45.5t51 30.5t68 11q31 0 58 -9t47 -26t31.5 -42t11.5 -57t-14.5 -60t-37 -52.5t-49 -46t-51.5 -39.5q36 -65 80.5 -120.5t82.5 -97.5q17 23 36 73.5
t29 108.5z" />
    <glyph glyph-name="quoteright" unicode="&#x2019;" horiz-adv-x="278" 
d="M191 612l-63 -142h-42l47 142h-40v110h98v-110z" />
    <glyph glyph-name="parenleft" unicode="(" horiz-adv-x="333" 
d="M281 732q-36 -48 -62.5 -95.5t-44.5 -97.5t-27 -104t-9 -114q0 -115 38 -213.5t104 -191.5h-74q-69 91 -104.5 193.5t-35.5 216.5q0 111 35 214t102 192h78z" />
    <glyph glyph-name="parenright" unicode=")" horiz-adv-x="333" 
d="M52 -84q36 48 62.5 95.5t44.5 97.5t27 104t9 114q0 115 -38 213.5t-104 191.5h74q69 -91 104.5 -193.5t35.5 -216.5q0 -111 -35 -214t-102 -192h-78z" />
    <glyph glyph-name="asterisk" unicode="*" 
d="M74 567l18 65l137 -65l6 4l-22 151h67l-18 -149l7 -6l132 69l25 -67l-149 -31l-3 -8l106 -106l-54 -42l-73 134h-8l-73 -132l-52 39l104 114l-2 7z" />
    <glyph glyph-name="plus" unicode="+" horiz-adv-x="600" 
d="M269 520h62v-229h229v-62h-229v-229h-62v229h-229v62h229v229z" />
    <glyph glyph-name="comma" unicode="," horiz-adv-x="305" 
d="M201 0l-63 -148h-42l47 148h-40v110h98v-110z" />
    <glyph glyph-name="hyphen" unicode="-" horiz-adv-x="333" 
d="M40 229v62h252v-62h-252z" />
    <glyph glyph-name="hyphen" unicode="&#xad;" horiz-adv-x="333" 
d="M40 229v62h252v-62h-252z" />
    <glyph glyph-name="period" unicode="." horiz-adv-x="305" 
d="M201 110v-110h-98v110h98z" />
    <glyph glyph-name="slash" unicode="/" horiz-adv-x="278" 
d="M286 732l-234 -742h-60l233 742h61z" />
    <glyph glyph-name="zero" unicode="0" horiz-adv-x="611" 
d="M126 361q0 -164 45.5 -236.5t133.5 -72.5t133.5 72.5t45.5 236.5t-45.5 236.5t-133.5 72.5t-133.5 -72.5t-45.5 -236.5zM50 361q0 98 18 168t51 115t80 66.5t106 21.5t106 -21.5t80 -66.5t51 -115t18 -168t-18 -168t-51 -115t-80 -66.5t-106 -21.5t-106 21.5t-80 66.5
t-51 115t-18 168z" />
    <glyph glyph-name="one" unicode="1" horiz-adv-x="611" 
d="M155 0v62h125v587l-139 -14v47q38 11 76.5 23t62.5 27h72v-670h123v-62h-320z" />
    <glyph glyph-name="two" unicode="2" horiz-adv-x="611" 
d="M535 0h-469v76q31 63 72.5 108.5t85 80.5t86 64t76 59t54 65.5t20.5 84.5q0 63 -38.5 97.5t-107.5 34.5q-39 0 -69 -14.5t-51 -37t-33.5 -50.5t-16.5 -55l-71 16q9 37 25 73.5t44.5 65.5t71 46.5t102.5 17.5q44 0 84 -12.5t70 -37t48 -60.5t18 -82q0 -55 -24 -98
t-61 -79.5t-82.5 -69.5t-89.5 -68t-81 -74.5t-56 -88.5h393v-62z" />
    <glyph glyph-name="three" unicode="3" horiz-adv-x="611" 
d="M92 172q42 -56 91.5 -88t106.5 -32q80 0 125 37.5t45 102.5q0 76 -48 119t-156 43h-71v62h43q109 0 157.5 34t48.5 101q0 27 -11 49t-29 37.5t-42 24t-50 8.5q-33 0 -57.5 -7t-44.5 -20t-37 -31.5t-35 -41.5l-59 40q18 25 40.5 47.5t51 39t63 26t78.5 9.5q97 0 152.5 -47
t55.5 -133q0 -33 -9.5 -59t-25.5 -45.5t-36 -33.5t-41 -22q43 -17 70 -39.5t42 -48t20.5 -52.5t5.5 -52q0 -46 -17 -84.5t-49 -66.5t-77.5 -43.5t-102.5 -15.5q-52 0 -93.5 14.5t-73.5 35.5t-54 46t-35 46z" />
    <glyph glyph-name="four" unicode="4" horiz-adv-x="611" 
d="M114 232h256v414h-3zM442 170v-170h-72v170h-332v62l298 490h106v-490h124v-62h-124z" />
    <glyph glyph-name="five" unicode="5" horiz-adv-x="611" 
d="M501 660h-310l-18 -231q35 32 72.5 45.5t75.5 13.5q45 0 86.5 -15.5t74 -46t51.5 -76t19 -106.5q0 -41 -13 -86t-43 -82.5t-77.5 -61.5t-116.5 -24q-46 0 -81.5 11.5t-63 31t-48 44.5t-37.5 51l65 34q26 -49 68 -79.5t99 -30.5q36 0 67 11t54.5 34t37 59.5t13.5 87.5
q0 40 -11.5 73.5t-32.5 57.5t-51 37.5t-67 13.5q-53 0 -91.5 -29t-60.5 -80l-63 14l32 391h370v-62z" />
    <glyph glyph-name="six" unicode="6" horiz-adv-x="611" 
d="M475 220q0 42 -13 74t-34 54t-48.5 33t-55.5 11q-33 0 -65.5 -12.5t-58.5 -33.5t-43 -49t-19 -59q1 -38 14 -72t35.5 -59.5t54 -40t70.5 -14.5q38 0 68.5 12.5t51.5 35t32 53t11 67.5zM481 629q-25 20 -53 30.5t-70 10.5q-43 0 -82.5 -18t-70.5 -55t-49.5 -94t-19.5 -135
q16 17 35 32.5t43 27.5t53 19t67 7q40 0 79 -14.5t70 -43t49.5 -72.5t18.5 -102t-19.5 -101.5t-52 -72.5t-74.5 -43.5t-87 -14.5q-56 0 -103.5 17.5t-82 57t-53.5 103.5t-19 156q0 85 19 159.5t56.5 130t92.5 87t128 31.5q59 0 99.5 -13.5t56.5 -28.5z" />
    <glyph glyph-name="seven" unicode="7" horiz-adv-x="611" 
d="M74 660v62h458v-44l-305 -678h-84l297 660h-366z" />
    <glyph glyph-name="eight" unicode="8" horiz-adv-x="611" 
d="M462 556q0 30 -13.5 51.5t-35.5 35.5t-50 20.5t-58 6.5t-58 -6.5t-50 -20.5t-35.5 -35.5t-13.5 -51.5q0 -29 16 -52t40 -40.5t51.5 -29t49.5 -17.5q30 7 58.5 20t50 30.5t35 40t13.5 48.5zM118 188q0 -24 11 -48.5t33.5 -44t58 -31.5t84.5 -12t84.5 12t58 31.5t33.5 44
t11 48.5q0 31 -15 55.5t-42 44t-63.5 35t-79.5 29.5q-33 -14 -64.5 -29.5t-55.5 -35t-39 -44t-15 -55.5zM568 188q0 -41 -16 -77t-49 -63t-82.5 -42.5t-115.5 -15.5t-115.5 15.5t-82.5 42.5t-49 63t-16 77q0 34 12.5 63.5t34 54t50.5 44t61 34.5v2q-60 23 -94 66t-34 100
q0 44 17.5 78t49 56.5t74 34t92.5 11.5t92.5 -11.5t74 -34t49 -56.5t17.5 -78q0 -57 -34 -100t-94 -66v-2q32 -12 61 -30t50.5 -43t34 -55.5t12.5 -67.5z" />
    <glyph glyph-name="nine" unicode="9" horiz-adv-x="611" 
d="M136 502q0 -42 13 -74t34 -54t48 -33t56 -11q66 0 114.5 38.5t69.5 95.5q-1 47 -13 85t-34.5 65t-54 41.5t-70.5 14.5q-38 0 -68.5 -12.5t-51.5 -35t-32 -53t-11 -67.5zM130 93q25 -20 53 -30.5t70 -10.5q43 0 81.5 19t68.5 57t49.5 94.5t22.5 131.5q-17 -17 -35.5 -32.5
t-42.5 -27.5t-53.5 -19t-66.5 -7q-41 0 -79.5 14.5t-69.5 43t-49.5 72t-18.5 102.5q0 58 19.5 101.5t52 72.5t74.5 43.5t87 14.5q56 0 103.5 -17.5t82 -57t53.5 -103.5t19 -156q0 -86 -19 -160t-56.5 -129.5t-92.5 -87t-128 -31.5q-59 0 -99.5 13.5t-56.5 28.5z" />
    <glyph glyph-name="colon" unicode=":" horiz-adv-x="305" 
d="M103 290v110h98v-110h-98zM103 0v110h98v-110h-98z" />
    <glyph glyph-name="semicolon" unicode=";" horiz-adv-x="305" 
d="M103 290v110h98v-110h-98zM201 0l-63 -148h-42l47 148h-40v110h98v-110z" />
    <glyph glyph-name="less" unicode="&#x3c;" horiz-adv-x="600" 
d="M554 0l-508 232v56l508 232v-62l-436 -198l436 -198v-62z" />
    <glyph glyph-name="equal" unicode="=" horiz-adv-x="600" 
d="M560 127h-520v62h520v-62zM560 331h-520v62h520v-62z" />
    <glyph glyph-name="greater" unicode="&#x3e;" horiz-adv-x="600" 
d="M482 260l-436 198v62l508 -231v-58l-508 -231v62z" />
    <glyph glyph-name="question" unicode="?" horiz-adv-x="444" 
d="M233 110v-110h-98v110h98zM152 228v55q0 38 11 66.5t28 52.5t36 44t36 41t28 44t11 53q0 15 -4.5 30.5t-15 27.5t-26.5 20t-38 8q-35 0 -59 -17.5t-46 -59.5l-60 29q25 54 67 82t96 28q31 0 60.5 -10t52 -29.5t36 -47.5t13.5 -65q0 -33 -11.5 -59.5t-29.5 -50.5
t-38 -45.5t-38 -43.5t-29.5 -46t-11.5 -51v-56h-68z" />
    <glyph glyph-name="at" unicode="@" horiz-adv-x="800" 
d="M270 308q0 -44 16.5 -71t51.5 -27q34 0 64 19.5t51.5 49.5t34 65t12.5 65q0 24 -6.5 41.5t-16.5 29t-23 16.5t-26 5q-36 0 -65 -19t-50 -47.5t-32 -62.5t-11 -64zM552 554h67l-80 -275q-4 -14 -7 -26.5t-3 -22.5q0 -25 22 -25q28 0 53.5 19t45 49t31 67t11.5 74
q0 61 -22 108t-60 79.5t-88.5 49.5t-106.5 17q-66 0 -120.5 -24t-94.5 -66t-62 -98.5t-22 -121.5q0 -66 23.5 -122t64 -96.5t95 -63t116.5 -22.5q75 0 140 27.5t107 80.5h76q-24 -43 -59 -75t-77 -53.5t-90 -32.5t-97 -11q-77 0 -145 28.5t-118 78.5t-79 117t-29 144
q0 79 29.5 147.5t80 118.5t118 79t143.5 29q69 0 131 -22.5t108.5 -63t74 -97t27.5 -124.5q0 -73 -23.5 -126.5t-58 -89t-74.5 -52.5t-74 -17q-30 0 -49 18t-21 44l-2 -1q-21 -23 -52.5 -42t-66.5 -19q-32 0 -58.5 12.5t-46 34t-30 50.5t-10.5 61q0 50 16.5 99t45.5 87.5
t70 62.5t90 24q41 0 71 -17.5t49 -59.5z" />
    <glyph glyph-name="A" unicode="A" horiz-adv-x="611" 
d="M196 294h219l-104 372h-11zM24 0l222 722h119l222 -722h-84l-68 226h-259l-68 -226h-84z" />
    <glyph glyph-name="B" unicode="B" horiz-adv-x="667" 
d="M188 412h140q45 0 77 10.5t52.5 28t29.5 39.5t9 45q0 119 -136 119h-172v-242zM188 68h150q89 0 132.5 31t43.5 99q0 69 -51 107.5t-137 38.5h-138v-276zM108 722h266q47 0 84.5 -14t63.5 -38t40 -56.5t14 -69.5q0 -60 -28 -101.5t-94 -64.5l1 -2q30 -8 55.5 -24.5
t44 -40.5t29 -53.5t10.5 -63.5q0 -41 -13.5 -76t-44 -61.5t-81 -41.5t-123.5 -15h-224v722z" />
    <glyph glyph-name="C" unicode="C" horiz-adv-x="611" 
d="M572 216q-12 -50 -32.5 -91.5t-51 -71.5t-73 -46.5t-97.5 -16.5q-61 0 -111.5 22.5t-87 68t-57 115.5t-20.5 165q0 88 18.5 157t54 116.5t87 72.5t116.5 25q101 0 160.5 -55t83.5 -155l-74 -22q-10 38 -24 68.5t-35 51.5t-51 32.5t-70 11.5q-39 0 -73 -18t-59 -55.5
t-39.5 -94.5t-14.5 -135t14.5 -135.5t41.5 -94.5t64 -55t82 -18q42 0 71.5 14.5t50 38.5t33.5 55t21 64z" />
    <glyph glyph-name="D" unicode="D" horiz-adv-x="667" 
d="M180 68h108q125 0 188.5 73.5t63.5 219.5q0 79 -18 134.5t-50.5 91t-78.5 51.5t-101 16h-112v-586zM100 722h194q73 0 133.5 -23t103 -68.5t66 -113t23.5 -156.5q0 -80 -21 -146t-63 -114t-103.5 -74.5t-142.5 -26.5h-190v722z" />
    <glyph glyph-name="E" unicode="E" horiz-adv-x="611" 
d="M541 722v-68h-353v-242h251v-68h-251v-276h373v-68h-453v722h433z" />
    <glyph glyph-name="F" unicode="F" horiz-adv-x="556" 
d="M528 722v-68h-348v-242h258v-68h-258v-344h-80v722h428z" />
    <glyph glyph-name="G" unicode="G" horiz-adv-x="667" 
d="M587 347v-347h-66v66h-2q-28 -38 -78.5 -57t-110.5 -19q-62 0 -113.5 22.5t-89 68t-58.5 115.5t-21 165t21 165t58.5 115.5t89 68t113.5 22.5q46 0 86 -11.5t73 -37t58.5 -65.5t42.5 -98l-76 -15q-27 87 -72 123t-108 36q-40 0 -77 -15t-65.5 -50t-46 -93t-17.5 -145
t17.5 -145t46 -93t65.5 -50t77 -15q44 0 76.5 12.5t54 34.5t32 51t10.5 62v61h-163v68h243z" />
    <glyph glyph-name="H" unicode="H" horiz-adv-x="722" 
d="M614 722v-722h-80v344h-346v-344h-80v722h80v-310h346v310h80z" />
    <glyph glyph-name="I" unicode="I" horiz-adv-x="333" 
d="M206 722v-722h-80v722h80z" />
    <glyph glyph-name="J" unicode="J" horiz-adv-x="444" 
d="M344 722v-536q0 -103 -42.5 -149.5t-123.5 -46.5q-32 0 -57 7.5t-45.5 20.5t-37 30t-30.5 35l60 39q17 -28 45.5 -46t62.5 -18q37 0 62.5 22.5t25.5 84.5v557h80z" />
    <glyph glyph-name="K" unicode="K" horiz-adv-x="667" 
d="M196 0h-80v722h80v-375h2l299 375h95l-224 -272l251 -450h-91l-215 384l-117 -142v-242z" />
    <glyph glyph-name="L" unicode="L" horiz-adv-x="556" 
d="M108 0v722h80v-654h342v-68h-422z" />
    <glyph glyph-name="M" unicode="M" horiz-adv-x="833" 
d="M653 0v660h-3l-202 -660h-62l-203 660h-3v-660h-72v722h124l184 -584h2l181 584h126v-722h-72z" />
    <glyph glyph-name="N" unicode="N" horiz-adv-x="722" 
d="M108 0v722h115l315 -556h4v556h72v-722h-66l-366 644h-2v-644h-72z" />
    <glyph glyph-name="O" unicode="O" horiz-adv-x="667" 
d="M131 361q0 -154 53.5 -228.5t148.5 -74.5t148.5 74.5t53.5 228.5t-53.5 228.5t-148.5 74.5t-148.5 -74.5t-53.5 -228.5zM51 361q0 182 74 276.5t208 94.5t208 -94.5t74 -276.5t-74 -276.5t-208 -94.5t-208 94.5t-74 276.5z" />
    <glyph glyph-name="P" unicode="P" horiz-adv-x="611" 
d="M180 390h136q50 0 84 8.5t54.5 25t29.5 41.5t9 57q0 65 -39 98.5t-120 33.5h-154v-264zM100 0v722h252q58 0 99.5 -15.5t68.5 -42.5t40 -64t13 -80q0 -90 -64.5 -144t-200.5 -54h-128v-322h-80z" />
    <glyph glyph-name="Q" unicode="Q" horiz-adv-x="667" 
d="M362 234q49 -7 80 -23t55 -51q38 73 38 201q0 154 -53.5 228.5t-148.5 74.5t-148.5 -74.5t-53.5 -228.5t53.5 -228.5t148.5 -74.5q70 0 117 40q-18 27 -37 40.5t-51 18.5v77zM650 -58q-34 0 -57.5 6t-41.5 18t-32 29.5t-29 41.5q-64 -47 -157 -47q-134 0 -208 94.5
t-74 276.5t74 276.5t208 94.5t208 -94.5t74 -276.5q0 -91 -19 -159.5t-55 -115.5q19 -35 45 -50.5t64 -15.5v-78z" />
    <glyph glyph-name="R" unicode="R" horiz-adv-x="667" 
d="M180 396h145q83 0 125.5 31.5t42.5 100.5q0 36 -12 60.5t-34 39t-53 20.5t-70 6h-144v-258zM100 0v722h232q118 0 179.5 -49.5t61.5 -140.5q0 -77 -40 -122t-104 -66l153 -344h-87l-146 328h-169v-328h-80z" />
    <glyph glyph-name="S" unicode="S" horiz-adv-x="611" 
d="M448 538q-7 26 -21 49t-35 40t-49 27t-63 10q-63 0 -98.5 -29t-36.5 -83q0 -30 17 -51t45.5 -37.5t65 -30.5t74.5 -28.5t75 -31.5t65.5 -40.5t46 -55.5t17.5 -75q0 -39 -12 -77t-40.5 -68t-75 -48.5t-115.5 -18.5q-59 0 -101.5 17.5t-72.5 44.5t-50 60.5t-34 65.5l73 26
q11 -29 27 -55t38.5 -46.5t53 -32.5t70.5 -12q80 0 119.5 37t39.5 93q0 46 -30 74.5t-75 49.5t-98 38.5t-98 42t-75 60.5t-30 93q0 39 15.5 73t44 59t68.5 39.5t89 14.5q85 0 147 -44t91 -134z" />
    <glyph glyph-name="T" unicode="T" horiz-adv-x="556" 
d="M318 654v-654h-80v654h-216v68h512v-68h-216z" />
    <glyph glyph-name="U" unicode="U" horiz-adv-x="722" 
d="M188 722v-510q0 -32 11 -60t33 -49t54.5 -33t74.5 -12t74.5 12t54.5 33t33 49t11 60v510h80v-504q0 -54 -18.5 -96.5t-52 -71.5t-80 -44.5t-102.5 -15.5t-102.5 15.5t-80 44.5t-52 71.5t-18.5 96.5v504h80z" />
    <glyph glyph-name="V" unicode="V" horiz-adv-x="556" 
d="M18 722h80l178 -592h2l179 592h81l-224 -722h-73z" />
    <glyph glyph-name="W" unicode="W" horiz-adv-x="833" 
d="M28 722h76l134 -576h2l140 576h71l144 -576h2l132 576h76l-171 -722h-71l-148 584h-2l-140 -584h-71z" />
    <glyph glyph-name="X" unicode="X" horiz-adv-x="556" 
d="M106 0h-92l216 377l-202 345h92l155 -265l152 265h92l-197 -345l220 -377h-92l-174 298z" />
    <glyph glyph-name="Y" unicode="Y" horiz-adv-x="556" 
d="M238 304l-222 418h88l174 -331l174 331h88l-222 -418v-304h-80v304z" />
    <glyph glyph-name="Z" unicode="Z" horiz-adv-x="556" 
d="M511 0h-466v58l362 596h-329v68h429v-52l-368 -602h372v-68z" />
    <glyph glyph-name="bracketleft" unicode="[" horiz-adv-x="333" 
d="M76 722h204v-42h-132v-712h132v-42h-204v796z" />
    <glyph glyph-name="backslash" unicode="\" horiz-adv-x="278" 
d="M53 732l233 -742h-60l-234 742h61z" />
    <glyph glyph-name="bracketright" unicode="]" horiz-adv-x="333" 
d="M257 -74h-204v42h132v712h-132v42h204v-796z" />
    <glyph glyph-name="asciicircum" unicode="^" horiz-adv-x="600" 
d="M47 279l224 443h58l224 -443h-63l-191 375l-188 -375h-64z" />
    <glyph glyph-name="underscore" unicode="_" 
d="M0 -125v50h500v-50h-500z" />
    <glyph glyph-name="quoteleft" unicode="&#x2018;" horiz-adv-x="278" 
d="M87 590l63 142h42l-47 -142h40v-110h-98v110z" />
    <glyph glyph-name="a" unicode="a" 
d="M360 281q-246 -43 -246 -149q0 -18 8 -33t20 -25.5t27.5 -16t30.5 -5.5q19 0 41 6.5t43 18.5t40.5 27.5t35.5 33.5v143zM57 420q25 45 73 77.5t122 32.5q33 0 65 -8.5t57.5 -27t41.5 -48t16 -72.5v-262q0 -43 3.5 -67.5t8.5 -44.5h-74l-8 72q-27 -30 -70 -56t-102 -26
q-30 0 -57 9t-47 27t-32 44.5t-12 62.5q0 43 17 75.5t55 58t98.5 44.5t147.5 34v28q0 52 -30 73.5t-77 21.5q-30 0 -52.5 -7.5t-38.5 -19.5t-26.5 -26.5t-15.5 -27.5z" />
    <glyph glyph-name="b" unicode="b" horiz-adv-x="556" 
d="M160 122q38 -38 67 -54t64 -16q68 0 107.5 52t39.5 152q0 59 -11 99.5t-31 65.5t-47 36t-58 11q-32 0 -67 -20t-64 -52v-274zM160 722v-252l4 2q30 25 65 41.5t72 16.5q33 0 70 -14t67.5 -45.5t51 -83t20.5 -127.5q0 -78 -20.5 -130t-51.5 -83t-69 -44t-72 -13
q-47 0 -82.5 18t-67.5 47l-13 -55h-50q5 29 4.5 57t-0.5 57v608h72z" />
    <glyph glyph-name="c" unicode="c" 
d="M376 365q-15 48 -45.5 75.5t-77.5 27.5q-67 0 -104 -54t-37 -154t37 -154t104 -54q25 0 44.5 4.5t36.5 15.5t32 29.5t30 46.5l58 -26q-20 -33 -39 -58t-42.5 -41.5t-52 -24.5t-67.5 -8q-49 0 -88.5 18.5t-67 53.5t-42.5 85t-15 113t15 113t42.5 85t67 53.5t88.5 18.5
q40 0 70 -10.5t52.5 -29.5t39 -45t28.5 -56z" />
    <glyph glyph-name="d" unicode="d" horiz-adv-x="556" 
d="M396 396q-29 32 -64 52t-67 20t-58.5 -11t-46.5 -36t-31 -65.5t-11 -99.5q0 -100 39.5 -152t107.5 -52q35 0 64 16t67 54v274zM468 722v-608q0 -29 -0.5 -57t4.5 -57h-66l-10 51q-18 -25 -54 -43t-83 -18q-35 0 -72.5 13t-68.5 44t-51.5 83t-20.5 130q0 76 20.5 127.5
t51 83t67.5 45.5t70 14q37 0 72 -16.5t65 -41.5l4 -2v252h72z" />
    <glyph glyph-name="e" unicode="e" 
d="M378 308q0 72 -32.5 116t-91.5 44q-66 0 -100.5 -44t-39.5 -116h264zM466 111q-13 -22 -29 -43.5t-39.5 -39t-55.5 -28t-76 -10.5t-84.5 15.5t-72 48.5t-50.5 84t-19 122q0 63 15 113t43 85t67 53.5t87 18.5q40 0 76 -13.5t63 -42t43 -73.5t16 -107v-48h-338
q0 -43 12 -78.5t33 -61t49 -40t60 -14.5q48 0 84.5 23.5t59.5 64.5z" />
    <glyph glyph-name="f" unicode="f" horiz-adv-x="333" 
d="M115 0v458h-88v62h88v59q0 46 8 75.5t23.5 47t39.5 24t56 6.5q16 0 32 -1.5t32 -3.5v-64q-13 2 -26.5 4.5t-25.5 2.5q-37 0 -52 -15t-15 -59v-76h113v-62h-113v-458h-72z" />
    <glyph glyph-name="g" unicode="g" 
d="M413 -55q-1 38 -42.5 57.5t-137.5 19.5q-42 0 -70 -8.5t-44.5 -21t-23.5 -28t-7 -29.5q0 -15 6 -27t24 -20.5t51 -13t87 -4.5q32 0 60.5 4.5t50 14t34 23.5t12.5 33zM368 344q0 57 -33 90.5t-99 33.5q-62 0 -94 -34.5t-32 -85.5q0 -52 37 -86t97 -34q31 0 54 9.5
t38.5 25.5t23.5 37t8 44zM480 468q-23 0 -44.5 -3.5t-35.5 -10.5q11 -14 23.5 -42t12.5 -64q0 -39 -15 -72t-40.5 -57.5t-60.5 -38.5t-74 -14q-32 0 -51.5 4t-40.5 10q-41 -12 -41 -48q0 -18 11.5 -28t31.5 -10q92 0 154.5 -8.5t100.5 -26.5t54 -45.5t16 -65.5
q0 -29 -14.5 -54t-43.5 -44.5t-73.5 -30.5t-105.5 -11q-110 0 -167 30.5t-57 95.5q0 39 23 61.5t65 44.5q-30 9 -47.5 30t-17.5 44q0 34 20 52t50 37q-37 28 -54 65t-17 80q0 41 15 74.5t41.5 57.5t62.5 37t78 13t72.5 -9t56.5 -27q23 17 53 30t59 16v-72z" />
    <glyph glyph-name="h" unicode="h" horiz-adv-x="556" 
d="M161 722v-272h2q31 35 70 57.5t84 22.5q29 0 56 -8t48 -26t33.5 -47t12.5 -71v-378h-72v376q0 52 -23 72t-62 20q-20 0 -41.5 -7.5t-41 -19t-37 -25.5t-29.5 -27v-389h-72v722h72z" />
    <glyph glyph-name="i" unicode="i" horiz-adv-x="278" 
d="M175 732v-86h-72v86h72zM103 520h72v-520h-72v520z" />
    <glyph glyph-name="j" unicode="j" horiz-adv-x="278" 
d="M189 646h-72v86h72v-86zM189 520v-603q0 -48 -28.5 -78.5t-78.5 -30.5q-18 0 -33.5 3t-26.5 9v59q8 -4 17.5 -6.5t20.5 -2.5q31 0 44 11.5t13 40.5v598h72z" />
    <glyph glyph-name="k" unicode="k" 
d="M84 722h72v-465h2l210 263h87l-153 -192l173 -328h-85l-138 266l-96 -110v-156h-72v722z" />
    <glyph glyph-name="l" unicode="l" horiz-adv-x="278" 
d="M175 722v-722h-72v722h72z" />
    <glyph glyph-name="m" unicode="m" horiz-adv-x="833" 
d="M82 0v520h72v-69l4 4q33 37 73 56t78 19q51 0 85 -23t48 -59q35 37 77 59.5t88 22.5q26 0 51.5 -6.5t46 -24t33 -48.5t12.5 -79v-372h-72v372q0 53 -23 74.5t-58 21.5q-24 0 -44 -7t-37.5 -18.5t-33 -26t-30.5 -28.5v-388h-72v372q0 53 -23 74.5t-58 21.5q-24 0 -44 -7
t-37.5 -18.5t-33 -26t-30.5 -28.5v-388h-72z" />
    <glyph glyph-name="n" unicode="n" horiz-adv-x="556" 
d="M161 520v-70h2q31 35 70 57.5t84 22.5q29 0 56 -8t48 -26t33.5 -47t12.5 -71v-378h-72v376q0 52 -23 72t-62 20q-20 0 -41.5 -7.5t-41 -19t-37 -25.5t-29.5 -27v-389h-72v520h72z" />
    <glyph glyph-name="o" unicode="o" 
d="M391 260q0 101 -38 154.5t-103 53.5t-103 -53.5t-38 -154.5t38 -154.5t103 -53.5t103 53.5t38 154.5zM463 260q0 -56 -13.5 -105.5t-40 -86t-66.5 -57.5t-93 -21t-93 21t-66.5 57.5t-40 86t-13.5 105.5t13.5 105.5t40 86t66.5 57.5t93 21t93 -21t66.5 -57.5t40 -86
t13.5 -105.5z" />
    <glyph glyph-name="p" unicode="p" horiz-adv-x="556" 
d="M160 124q29 -32 64 -52t67 -20q31 0 58 11t47 36t31 65.5t11 99.5q0 100 -39.5 152t-107.5 52q-35 0 -64 -16t-67 -54v-274zM88 -192v712h72v-61h2q10 15 25.5 27.5t33.5 22.5t37.5 15.5t38.5 5.5q34 0 72 -13t69 -44t51.5 -83t20.5 -130q0 -76 -20.5 -127.5t-51 -83
t-67.5 -45.5t-70 -14q-37 0 -72 16.5t-65 41.5l-4 2v-242h-72z" />
    <glyph glyph-name="q" unicode="q" horiz-adv-x="556" 
d="M396 398q-38 38 -67 54t-64 16q-68 0 -107.5 -52t-39.5 -152q0 -59 11 -99.5t31 -65.5t46.5 -36t58.5 -11t67 20t64 52v274zM396 -192v242l-4 -2q-30 -25 -65 -41.5t-72 -16.5q-33 0 -70 14t-67.5 45.5t-51 83t-20.5 127.5q0 78 20.5 130t51.5 83t68.5 44t72.5 13
q47 0 81 -18t57 -47l13 55h58v-712h-72z" />
    <glyph glyph-name="r" unicode="r" horiz-adv-x="333" 
d="M70 520h72v-103h2q15 27 31 47.5t36 34.5t45 21.5t57 7.5v-72q-68 -2 -106.5 -44.5t-64.5 -123.5v-288h-72v520z" />
    <glyph glyph-name="s" unicode="s" horiz-adv-x="444" 
d="M81 132q26 -37 63 -58.5t86 -21.5q58 0 85 26.5t27 59.5t-23 51.5t-57 30.5t-73.5 22.5t-73 27.5t-55.5 44.5t-20 75.5q2 68 49.5 104.5t122.5 35.5q25 0 51.5 -7t50 -19t43.5 -28.5t33 -36.5l-50 -44q-30 37 -61 55t-73 18q-46 0 -70 -21t-24 -56q0 -28 22.5 -44
t56 -27.5t72.5 -22.5t72.5 -29.5t56 -48t22.5 -77.5q0 -38 -15 -66.5t-40.5 -47.5t-58.5 -28.5t-68 -9.5q-61 0 -116.5 25.5t-91.5 73.5z" />
    <glyph glyph-name="t" unicode="t" horiz-adv-x="333" 
d="M103 520v171h72v-171h120v-62h-120v-370q0 -18 13.5 -27t45.5 -9q18 0 34 1.5t30 3.5v-59q-10 -3 -31 -5.5t-53 -2.5q-59 0 -85 18t-26 68v382h-85v62h85z" />
    <glyph glyph-name="u" unicode="u" horiz-adv-x="556" 
d="M395 0v70h-2q-31 -35 -70 -57.5t-84 -22.5q-29 0 -56 8t-48 26t-33.5 47t-12.5 71v378h72v-376q0 -52 23 -72t62 -20q20 0 41.5 7.5t41 19t37 25.5t29.5 27v389h72v-520h-72z" />
    <glyph glyph-name="v" unicode="v" horiz-adv-x="444" 
d="M272 0h-96l-160 520h73l132 -430h2l132 430h73z" />
    <glyph glyph-name="w" unicode="w" horiz-adv-x="667" 
d="M16 520h73l105 -400h2l102 400h73l104 -402h2l101 402h73l-139 -520h-73l-104 402h-2l-103 -402h-73z" />
    <glyph glyph-name="x" unicode="x" horiz-adv-x="444" 
d="M219 335l109 185h81l-146 -247l169 -273h-83l-130 213l-126 -213h-81l164 273l-152 247h81z" />
    <glyph glyph-name="y" unicode="y" horiz-adv-x="444" 
d="M428 520l-183 -566q-14 -44 -33.5 -72t-42.5 -44.5t-48.5 -23t-50.5 -6.5q-18 0 -29.5 2t-22.5 4v59q8 -1 17.5 -2t21.5 -1q16 0 36 3.5t39 16t35.5 37t25.5 67.5l-181 526h76l140 -397h2l122 397h76z" />
    <glyph glyph-name="z" unicode="z" horiz-adv-x="444" 
d="M414 0h-384v52l284 406h-256v62h354v-52l-284 -406h286v-62z" />
    <glyph glyph-name="braceleft" unicode="{" horiz-adv-x="333" 
d="M48 345q31 0 46.5 20t15.5 58v199q0 51 22.5 80.5t70.5 29.5h62v-42h-38q-21 0 -33 -13t-12 -43v-230q0 -38 -20 -56t-54 -23v-2q34 -5 54 -23t20 -56v-230q0 -30 12 -43t33 -13h38v-42h-62q-48 0 -70.5 29.5t-22.5 80.5v199q0 38 -15.5 58t-46.5 20v42z" />
    <glyph glyph-name="bar" unicode="|" horiz-adv-x="222" 
d="M80 732h62v-742h-62v742z" />
    <glyph glyph-name="braceright" unicode="}" horiz-adv-x="333" 
d="M285 303q-31 0 -46.5 -20t-15.5 -58v-199q0 -51 -22.5 -80.5t-70.5 -29.5h-62v42h38q21 0 33 13t12 43v230q0 38 20 56t54 23v2q-34 5 -54 23t-20 56v230q0 30 -12 43t-33 13h-38v42h62q48 0 70.5 -29.5t22.5 -80.5v-199q0 -38 15.5 -58t46.5 -20v-42z" />
    <glyph glyph-name="asciitilde" unicode="~" horiz-adv-x="600" 
d="M534 285q-12 -17 -25 -33t-28 -28.5t-33.5 -20t-41.5 -7.5q-30 0 -54.5 10.5t-49.5 23.5t-51.5 23.5t-61.5 10.5q-33 0 -52.5 -22.5t-31.5 -50.5l-39 45q9 17 21 33.5t27.5 29t35 20t44.5 7.5q28 0 57.5 -10.5t57.5 -23.5q29 -13 54 -23.5t44 -10.5q15 0 27.5 6.5
t23 16.5t19.5 22.5t18 25.5z" />
    <glyph glyph-name="exclamdown" unicode="&#xa1;" horiz-adv-x="333" 
d="M118 410v110h98v-110h-98zM114 -202l21 494h64l21 -494h-106z" />
    <glyph glyph-name="cent" unicode="&#xa2;" horiz-adv-x="611" 
d="M346 460q-19 8 -43 8q-67 0 -104 -54t-37 -154q0 -116 50 -168zM258 60q19 -8 45 -8q25 0 44.5 4.5t36.5 15.5t32 29.5t30 46.5l58 -26q-20 -33 -39 -58t-42.5 -41.5t-52 -24.5t-67.5 -8q-18 0 -35 2.5t-32 8.5l-41 -112h-57l49 136q-47 33 -72 92.5t-25 142.5
q0 63 15 113t42.5 85t67 53.5t88.5 18.5q38 0 65 -9l32 89h57l-41 -113q26 -19 44.5 -46.5t32.5 -61.5l-67 -24q-12 40 -35 64z" />
    <glyph glyph-name="sterling" unicode="&#xa3;" horiz-adv-x="611" 
d="M350 328h-144q4 -16 5 -32t1 -36q0 -30 -5.5 -65t-22.5 -70q25 -12 48.5 -25t44.5 -23.5t41 -17.5t40 -7q71 0 106 33.5t48 94.5l64 -12q-15 -91 -66 -134.5t-134 -43.5q-38 0 -69 7t-58 18.5t-52 25t-50 27.5q-20 -29 -48.5 -50.5t-71.5 -27.5v78q21 4 41.5 17.5
t36 35.5t25.5 51.5t10 64.5q0 53 -7 91h-107v62h98q-5 29 -8.5 57t-3.5 61q0 51 14.5 92t42.5 70.5t69 45.5t94 16q94 0 149.5 -48.5t76.5 -137.5l-68 -12q-7 21 -17.5 45t-28.5 44t-44 33.5t-64 13.5q-44 0 -72.5 -13t-45 -34t-23.5 -47t-7 -52q0 -42 3.5 -75t6.5 -59h152
v-62z" />
    <glyph glyph-name="fraction" unicode="&#x2044;" horiz-adv-x="167" 
d="M-167 -10l439 742h62l-442 -742h-59z" />
    <glyph glyph-name="fraction" unicode="&#x2215;" horiz-adv-x="167" 
d="M-167 -10l439 742h62l-442 -742h-59z" />
    <glyph glyph-name="yen" unicode="&#xa5;" horiz-adv-x="611" 
d="M339 0h-68v234h-177v62h177v8l-42 80h-135v62h102l-147 276h72l184 -347l184 347h72l-147 -276h102v-62h-134l-43 -80v-8h177v-62h-177v-234z" />
    <glyph glyph-name="florin" unicode="&#x192;" horiz-adv-x="611" 
d="M64 -120q6 -3 18 -6.5t30 -3.5q24 0 40 5.5t26.5 17.5t17 31t11.5 46l78 430h-114v60h126l11 58q12 58 27 99t37 66.5t51.5 37t70.5 11.5q16 0 31 -2t24 -6l-17 -65q-8 5 -19 8t-26 3q-20 0 -34.5 -7t-26.5 -25t-22 -47.5t-19 -74.5l-11 -54h116v-62h-127l-82 -421
q-8 -41 -20.5 -72.5t-33.5 -53.5t-51.5 -33.5t-73.5 -11.5q-16 0 -26.5 2t-22.5 4z" />
    <glyph glyph-name="section" unicode="&#xa7;" 
d="M186 456q-25 0 -42.5 -16t-17.5 -39q0 -13 5 -25t15.5 -25.5t25.5 -29.5t36 -38t36.5 -36.5t27.5 -23t22.5 -12t21.5 -3.5q23 0 40.5 15t17.5 41q0 10 -4 21.5t-13.5 26t-26 33.5t-40.5 43q-23 23 -38.5 36.5t-26.5 20.5t-20 9t-19 2zM148 36q17 -26 41.5 -46t60.5 -20
q30 0 49.5 17.5t19.5 46.5q0 22 -19 51t-48 61t-62.5 66t-62.5 67t-49 63.5t-20 55.5q0 47 30 75t90 31q-13 16 -23.5 29t-18 25.5t-12 27t-4.5 34.5q0 22 9.5 42.5t26 36t40 24.5t52.5 9q45 0 77.5 -19t68.5 -64l-48 -27q-5 6 -13 15.5t-19.5 18.5t-27 15.5t-34.5 6.5
q-30 0 -47 -17.5t-17 -40.5q0 -11 3.5 -21t15.5 -25t36 -40t65 -66t67 -69t41 -50t20.5 -40.5t5.5 -40.5q0 -25 -8.5 -44t-23.5 -32t-35 -21t-42 -11q25 -29 39.5 -56.5t14.5 -67.5q0 -22 -8.5 -43.5t-25.5 -38.5t-43 -27.5t-60 -10.5q-51 0 -91 24.5t-62 63.5z" />
    <glyph glyph-name="currency" unicode="&#xa4;" horiz-adv-x="611" 
d="M305 171q39 0 73 13t59 37.5t39.5 60t14.5 79.5q0 43 -14.5 78.5t-39.5 60t-59 38t-73 13.5t-73 -13.5t-59 -38t-39.5 -60t-14.5 -78.5q0 -44 14.5 -79.5t39.5 -60t59 -37.5t73 -13zM554 570l-55 -55q26 -32 40 -71t14 -83t-14 -83t-40 -71l55 -55l-42 -42l-56 56
q-30 -25 -68.5 -39t-82.5 -14t-82.5 14t-68.5 39l-56 -56l-42 42l55 55q-26 32 -40 71t-14 83t14 83t40 71l-55 55l42 42l56 -56q30 25 68.5 39t82.5 14t82.5 -14t68.5 -39l56 56z" />
    <glyph glyph-name="quotesingle" unicode="'" horiz-adv-x="222" 
d="M80 722h62v-270h-62v270z" />
    <glyph glyph-name="quotedblleft" unicode="&#x201c;" 
d="M307 590l63 142h42l-47 -142h40v-110h-98v110zM103 590l63 142h42l-47 -142h40v-110h-98v110z" />
    <glyph glyph-name="guillemotleft" unicode="&#xab;" 
d="M420 418l-129 -158l129 -158h-68l-132 158l130 158h70zM280 418l-129 -158l129 -158h-68l-132 158l130 158h70z" />
    <glyph glyph-name="guilsinglleft" unicode="&#x2039;" horiz-adv-x="333" 
d="M254 418l-129 -158l129 -158h-68l-132 158l130 158h70z" />
    <glyph glyph-name="guilsinglright" unicode="&#x203a;" horiz-adv-x="333" 
d="M149 418l130 -158l-132 -158h-68l129 158l-129 158h70z" />
    <glyph glyph-name="fi" unicode="&#xfb01;" horiz-adv-x="556" 
d="M469 732v-86h-72v86h72zM397 520h72v-520h-72v520zM102 0v458h-88v62h88v59q0 46 8 75.5t23.5 47t39.5 24t56 6.5q16 0 32 -1.5t32 -3.5v-64q-13 2 -26.5 4.5t-25.5 2.5q-37 0 -52 -15t-15 -59v-76h113v-62h-113v-458h-72z" />
    <glyph glyph-name="fl" unicode="&#xfb02;" horiz-adv-x="556" 
d="M469 722v-722h-72v722h72zM102 0v458h-88v62h88v59q0 46 8 75.5t23.5 47t39.5 24t56 6.5q16 0 32 -1.5t32 -3.5v-64q-13 2 -26.5 4.5t-25.5 2.5q-37 0 -52 -15t-15 -59v-76h113v-62h-113v-458h-72z" />
    <glyph glyph-name="endash" unicode="&#x2013;" 
d="M0 285h500v-50h-500v50z" />
    <glyph glyph-name="dagger" unicode="&#x2020;" 
d="M290 732l-24 -208l160 22v-78l-160 26l24 -174l-24 -404h-32l-24 404l24 174l-160 -26v78l160 -22l-24 208h80z" />
    <glyph glyph-name="daggerdbl" unicode="&#x2021;" 
d="M290 324l-24 -170l160 26v-78l-160 22l24 -208h-80l24 208l-160 -22v78l160 -26l-24 170l24 170l-160 -26v78l160 -22l-24 208h80l-24 -208l160 22v-78l-160 26z" />
    <glyph glyph-name="periodcentered" unicode="&#xb7;" horiz-adv-x="305" 
d="M90 259q0 26 17.5 44.5t44.5 18.5q26 0 44 -18.5t18 -44.5t-18 -43.5t-44 -17.5q-27 0 -44.5 17.5t-17.5 43.5z" />
    <glyph glyph-name="periodcentered" unicode="&#x2219;" horiz-adv-x="305" 
d="M90 259q0 26 17.5 44.5t44.5 18.5q26 0 44 -18.5t18 -44.5t-18 -43.5t-44 -17.5q-27 0 -44.5 17.5t-17.5 43.5z" />
    <glyph glyph-name="paragraph" unicode="&#xb6;" 
d="M219 331q-45 0 -83.5 15t-66.5 41.5t-43.5 61.5t-15.5 74q0 99 59.5 149t165.5 50h277v-50h-71v-756h-60v756h-102v-756h-60v415z" />
    <glyph glyph-name="bullet" unicode="&#x2022;" 
d="M69 361q0 37 14 70t38.5 57.5t57 38.5t70.5 14q37 0 70 -14t58 -38.5t39 -57.5t14 -70q0 -38 -14 -70.5t-39 -57.5t-58 -39t-70 -14q-38 0 -70.5 14t-57 39t-38.5 57.5t-14 70.5z" />
    <glyph glyph-name="quotesinglbase" unicode="&#x201a;" horiz-adv-x="278" 
d="M191 0l-63 -142h-42l47 142h-40v110h98v-110z" />
    <glyph glyph-name="quotedblbase" unicode="&#x201e;" 
d="M193 0l-63 -142h-42l47 142h-40v110h98v-110zM397 0l-63 -142h-42l47 142h-40v110h98v-110z" />
    <glyph glyph-name="quotedblright" unicode="&#x201d;" 
d="M193 612l-63 -142h-42l47 142h-40v110h98v-110zM397 612l-63 -142h-42l47 142h-40v110h98v-110z" />
    <glyph glyph-name="guillemotright" unicode="&#xbb;" 
d="M150 418l130 -158l-132 -158h-68l129 158l-129 158h70zM290 418l130 -158l-132 -158h-68l129 158l-129 158h70z" />
    <glyph glyph-name="ellipsis" unicode="&#x2026;" horiz-adv-x="1000" 
d="M549 110v-110h-98v110h98zM882 110v-110h-98v110h98zM216 110v-110h-98v110h98z" />
    <glyph glyph-name="perthousand" unicode="&#x2030;" horiz-adv-x="1000" 
d="M747 148q0 -18 7 -34.5t19 -28.5t28.5 -19.5t35.5 -7.5q15 0 31 6.5t29 18.5t21.5 28.5t8.5 36.5t-8.5 36.5t-21.5 28.5t-29 18.5t-31 6.5t-31 -6.5t-29 -18.5t-21.5 -28.5t-8.5 -36.5zM73 574q0 -18 7 -34.5t19 -28.5t28.5 -19.5t35.5 -7.5q15 0 31 6.5t29 18.5
t21.5 28.5t8.5 36.5t-8.5 36.5t-21.5 28.5t-29 18.5t-31 6.5t-31 -6.5t-29 -18.5t-21.5 -28.5t-8.5 -36.5zM385 148q0 -18 7 -34.5t19 -28.5t28.5 -19.5t35.5 -7.5q15 0 31 6.5t29 18.5t21.5 28.5t8.5 36.5t-8.5 36.5t-21.5 28.5t-29 18.5t-31 6.5t-31 -6.5t-29 -18.5
t-21.5 -28.5t-8.5 -36.5zM147 -10h-59l399 742h61zM327 148q0 31 12 58t32.5 47t47 31.5t56.5 11.5t56.5 -11.5t47 -31.5t32.5 -47t12 -58t-12 -58t-32.5 -47t-47 -31.5t-56.5 -11.5t-56.5 11.5t-47 31.5t-32.5 47t-12 58zM15 574q0 31 12 58t32.5 47t47 31.5t56.5 11.5
t56.5 -11.5t47 -31.5t32.5 -47t12 -58t-12 -58t-32.5 -47t-47 -31.5t-56.5 -11.5t-56.5 11.5t-47 31.5t-32.5 47t-12 58zM689 148q0 31 12 58t32.5 47t47 31.5t56.5 11.5t56.5 -11.5t47 -31.5t32.5 -47t12 -58t-12 -58t-32.5 -47t-47 -31.5t-56.5 -11.5t-56.5 11.5t-47 31.5
t-32.5 47t-12 58z" />
    <glyph glyph-name="questiondown" unicode="&#xbf;" horiz-adv-x="444" 
d="M211 410v110h98v-110h-98zM292 292v-55q0 -38 -11 -66.5t-28 -52.5t-36 -44t-36 -41t-28 -44.5t-11 -52.5q0 -15 4.5 -30.5t15 -27.5t26 -20t38.5 -8q35 0 59 17.5t46 59.5l60 -29q-25 -54 -67 -82t-96 -28q-32 0 -61 10t-51.5 29.5t-36 47.5t-13.5 65q0 32 11.5 59
t29.5 51t38 45.5t38 43.5t29.5 45.5t11.5 51.5v56h68z" />
    <glyph glyph-name="grave" unicode="`" horiz-adv-x="278" 
d="M115 722l89 -142h-67l-131 142h109z" />
    <glyph glyph-name="acute" unicode="&#xb4;" horiz-adv-x="278" 
d="M272 722l-131 -142h-67l89 142h109z" />
    <glyph glyph-name="circumflex" unicode="&#x2c6;" horiz-adv-x="278" 
d="M91 722h94l100 -142h-80l-67 94l-65 -94h-80z" />
    <glyph glyph-name="tilde" unicode="&#x2dc;" horiz-adv-x="278" 
d="M310 705q-2 -18 -9.5 -37t-20.5 -34.5t-30 -25.5t-37 -10t-39.5 6t-38.5 13q-20 8 -38.5 13.5t-36.5 5.5q-16 0 -28.5 -15t-13.5 -32h-50q5 45 31 77t76 32q20 0 38 -5.5t35 -12.5q17 -8 33 -13.5t32 -5.5q19 0 31.5 12t15.5 32h50z" />
    <glyph glyph-name="macron" unicode="&#xaf;" horiz-adv-x="278" 
d="M-17 612v60h312v-60h-312z" />
    <glyph glyph-name="macron" unicode="&#x2c9;" horiz-adv-x="278" 
d="M-17 612v60h312v-60h-312z" />
    <glyph glyph-name="breve" unicode="&#x2d8;" horiz-adv-x="278" 
d="M293 720q-9 -69 -49 -102.5t-105 -33.5t-105 33.5t-49 102.5h49q16 -78 105 -78q88 0 105 78h49z" />
    <glyph glyph-name="dotaccent" unicode="&#x2d9;" horiz-adv-x="278" 
d="M95 590v94h88v-94h-88z" />
    <glyph glyph-name="dieresis" unicode="&#xa8;" horiz-adv-x="278" 
d="M16 590v94h88v-94h-88zM174 590v94h88v-94h-88z" />
    <glyph glyph-name="ring" unicode="&#x2da;" horiz-adv-x="278" 
d="M83 680q0 -23 16.5 -39.5t39.5 -16.5t39.5 16.5t16.5 39.5t-16.5 39.5t-39.5 16.5t-39.5 -16.5t-16.5 -39.5zM39 680q0 42 29 71t71 29t71 -29t29 -71t-29 -71t-71 -29t-71 29t-29 71z" />
    <glyph glyph-name="cedilla" unicode="&#xb8;" horiz-adv-x="278" 
d="M175 0l-47 -58l2 -2q15 5 30 5q43 0 64 -26t20 -58q-1 -42 -32.5 -63.5t-88.5 -21.5q-31 0 -53.5 6.5t-40.5 14.5l17 44q14 -9 31.5 -14t34.5 -5q56 0 56 43q0 16 -11 27t-30 11q-11 0 -23 -1.5t-23 -6.5l-17 19l63 86h48z" />
    <glyph glyph-name="hungarumlaut" unicode="&#x2dd;" horiz-adv-x="278" 
d="M196 722l-123 -142h-63l79 142h107zM348 722l-131 -142h-67l89 142h109z" />
    <glyph glyph-name="ogonek" unicode="&#x2db;" horiz-adv-x="278" 
d="M279 -153q-8 -6 -22.5 -16t-34.5 -19t-44 -15.5t-50 -6.5q-48 0 -72.5 23.5t-24.5 64.5q0 50 55 86t169 55v-10q-20 -7 -45.5 -17.5t-48 -25.5t-38.5 -34.5t-16 -44.5q0 -23 14.5 -37t43.5 -14q11 0 24 4t26.5 10.5t26 13.5t21.5 13z" />
    <glyph glyph-name="caron" unicode="&#x2c7;" horiz-adv-x="278" 
d="M73 722l65 -94l67 94h80l-100 -142h-94l-98 142h80z" />
    <glyph glyph-name="emdash" unicode="&#x2014;" horiz-adv-x="1000" 
d="M0 285h1000v-50h-1000v50z" />
    <glyph glyph-name="AE" unicode="&#xc6;" horiz-adv-x="1000" 
d="M497 294v372h-22l-205 -372h227zM423 722h507v-68h-353v-242h251v-68h-251v-276h373v-68h-453v226h-266l-124 -226h-91z" />
    <glyph glyph-name="ordfeminine" unicode="&#xaa;" horiz-adv-x="300" 
d="M216 579q-72 -14 -110 -34t-38 -52q0 -16 12.5 -27.5t35.5 -11.5q27 0 55 13.5t45 29.5v82zM25 666q17 27 48 46.5t79 19.5q21 0 42.5 -5t38 -16t27 -29t10.5 -44v-157q0 -26 2 -40.5t6 -26.5h-53l-6 35q-17 -12 -43 -26.5t-64 -14.5q-40 0 -69 21.5t-29 64.5
q0 51 47 81.5t155 49.5v13q0 24 -17.5 36t-46.5 12q-39 0 -59 -14t-27 -30z" />
    <glyph glyph-name="Oslash" unicode="&#xd8;" horiz-adv-x="667" 
d="M458 617q-49 47 -125 47q-95 0 -148.5 -74.5t-53.5 -228.5q0 -129 40 -203zM207 107q46 -49 126 -49q95 0 148.5 74.5t53.5 228.5q0 130 -40 205zM540 638q36 -47 55.5 -116t19.5 -161q0 -182 -74 -276.5t-208 -94.5q-98 0 -166 54l-68 -108h-67l94 149q-75 96 -75 276
q0 182 74 276.5t208 94.5q99 0 164 -52l56 90h70z" />
    <glyph glyph-name="OE" unicode="&#x152;" horiz-adv-x="1000" 
d="M510 534q0 73 -42.5 101.5t-123.5 28.5q-116 0 -172 -77t-56 -226t56 -226t172 -77q40 0 71 6.5t52 21.5t32 40t11 62v346zM963 0h-451q-38 0 -78 -5t-88 -5q-83 0 -141.5 28.5t-96 78.5t-55 118t-17.5 146t17.5 146t55 118t96 78.5t141.5 28.5q48 0 88 -5t78 -5h431v-68
h-353v-242h251v-68h-251v-276h373v-68z" />
    <glyph glyph-name="ordmasculine" unicode="&#xba;" horiz-adv-x="300" 
d="M70 572q0 -57 20 -86.5t60 -29.5t60 30t20 84t-20 84t-60 30q-38 0 -59 -30t-21 -82zM12 570q0 76 37.5 119t100.5 43q64 0 101 -43t37 -119t-37 -119t-101 -43q-63 0 -100.5 43t-37.5 119z" />
    <glyph glyph-name="ae" unicode="&#xe6;" horiz-adv-x="778" 
d="M656 308q0 72 -33.5 116t-92.5 44q-63 0 -91.5 -44t-30.5 -116h248zM336 281q-39 -8 -80 -19.5t-74 -28.5t-54.5 -42t-21.5 -59q0 -36 25.5 -58t58.5 -22q25 0 48.5 8t42.5 20t33.5 26.5t21.5 27.5v147zM408 246q0 -91 36.5 -142.5t111.5 -51.5q39 0 74 23.5t58 64.5
l56 -29q-13 -22 -29 -43.5t-38.5 -39t-53.5 -28t-73 -10.5q-24 0 -47.5 3.5t-45.5 13t-42.5 26.5t-38.5 45q-29 -28 -54 -45t-49 -26.5t-48 -13t-49 -3.5q-26 0 -51 9t-45.5 25.5t-33 41t-12.5 56.5q0 58 25.5 96.5t67.5 63.5t96.5 39t112.5 24v28q0 95 -98 95
q-29 0 -50.5 -7.5t-37.5 -19.5t-26 -26.5t-15 -27.5l-61 33q23 45 70 77.5t116 32.5q49 0 87.5 -16t62.5 -54q22 27 59 48.5t91 21.5q39 0 74 -13.5t62 -42t42.5 -73.5t15.5 -107v-48h-320z" />
    <glyph glyph-name="dotlessi" unicode="&#x131;" horiz-adv-x="278" 
d="M103 520h72v-520h-72v520z" />
    <glyph glyph-name="oslash" unicode="&#xf8;" 
d="M325 443q-31 25 -75 25q-65 0 -103 -53.5t-38 -154.5q0 -85 28 -136zM174 77q31 -25 76 -25q65 0 103 53.5t38 154.5q0 85 -28 136zM484 602l-82 -140q30 -37 45.5 -89t15.5 -113q0 -56 -13.5 -105.5t-40 -86t-66.5 -57.5t-93 -21q-66 0 -109 31l-61 -103h-64l83 141
q-32 38 -47 89.5t-15 111.5q0 56 13.5 105.5t40 86t66.5 57.5t93 21q63 0 108 -31l61 103h65z" />
    <glyph glyph-name="oe" unicode="&#x153;" horiz-adv-x="778" 
d="M676 308q0 72 -32.5 116t-91.5 44q-65 0 -93 -44t-29 -116h246zM95 260q0 -100 33 -154t96 -54q66 0 99 54t33 154t-31.5 154t-100.5 54q-63 0 -96 -54t-33 -154zM428 246q0 -43 7 -78.5t23.5 -61t42 -40t63.5 -14.5q47 0 82 23.5t52 64.5l56 -29q-10 -22 -25.5 -43.5
t-38 -39t-54 -28t-72.5 -10.5q-62 0 -104.5 22t-67.5 73q-30 -51 -72.5 -73t-95.5 -22q-44 0 -81 18.5t-63.5 53.5t-41.5 85t-15 113t15 113t41.5 85t63.5 53.5t81 18.5q53 0 95 -21.5t73 -71.5q26 54 70.5 73.5t95.5 19.5q37 0 71.5 -13.5t61 -42t42 -73.5t15.5 -107v-48
h-320z" />
    <glyph glyph-name="germandbls" unicode="&#xdf;" horiz-adv-x="556" 
d="M258 76q10 -8 28 -16t44 -8q27 0 46.5 11t32.5 29.5t19 44t6 54.5q0 49 -12.5 83t-36 55t-57 30t-75.5 9v62h29q22 0 41.5 9t34.5 25.5t23.5 38.5t8.5 49q0 56 -27.5 87t-84.5 31q-59 0 -84 -34t-28 -100v-536h-72v554q0 48 16 82t42 55t59.5 31t68.5 10q45 0 79 -13
t57 -36.5t34.5 -55.5t11.5 -69q0 -51 -22 -90t-67 -61v-2q70 -20 101.5 -75.5t31.5 -133.5q0 -50 -14 -88t-38 -64.5t-54.5 -40t-63.5 -13.5q-36 0 -60 7t-45 20z" />
    <glyph glyph-name="logicalnot" unicode="&#xac;" horiz-adv-x="600" 
d="M498 331h-458v62h520v-266h-62v204z" />
    <glyph glyph-name="mu" unicode="&#xb5;" horiz-adv-x="556" 
d="M395 0v70h-2q-31 -35 -70 -57.5t-84 -22.5q-43 0 -78 16v-198h-72v712h72v-376q0 -52 23 -72t62 -20q20 0 41.5 7.5t41 19t37 25.5t29.5 27v389h72v-520h-72z" />
    <glyph glyph-name="mu" unicode="&#x3bc;" horiz-adv-x="556" 
d="M395 0v70h-2q-31 -35 -70 -57.5t-84 -22.5q-43 0 -78 16v-198h-72v712h72v-376q0 -52 23 -72t62 -20q20 0 41.5 7.5t41 19t37 25.5t29.5 27v389h72v-520h-72z" />
    <glyph glyph-name="trademark" unicode="&#x2122;" horiz-adv-x="990" 
d="M376 668h-128v-358h-68v358h-126v54h322v-54zM504 310h-68v412h105l124 -312l120 312h105v-412h-68v344h-2l-135 -344h-44l-135 344h-2v-344z" />
    <glyph glyph-name="plusminus" unicode="&#xb1;" horiz-adv-x="600" 
d="M40 62h520v-62h-520v62zM269 520h62v-179h229v-62h-229v-179h-62v179h-229v62h229v179z" />
    <glyph glyph-name="divide" unicode="&#xf7;" horiz-adv-x="600" 
d="M238 468q0 26 18 44t44 18t44 -18t18 -44t-18 -44t-44 -18t-44 18t-18 44zM238 52q0 26 18 44t44 18t44 -18t18 -44t-18 -44t-44 -18t-44 18t-18 44zM40 229v62h520v-62h-520z" />
    <glyph glyph-name="degree" unicode="&#xb0;" horiz-adv-x="400" 
d="M104 588q0 -43 28 -71.5t68 -28.5t68 28.5t28 71.5t-28 71.5t-68 28.5t-68 -28.5t-28 -71.5zM56 588q0 30 11 56t30.5 45.5t46 31t56.5 11.5t56 -11.5t45.5 -31t31 -45.5t11.5 -56t-11.5 -56.5t-31 -46t-45.5 -30.5t-56 -11t-56.5 11t-46 30.5t-30.5 46t-11 56.5z" />
    <glyph glyph-name="registered" unicode="&#xae;" horiz-adv-x="800" 
d="M322 387h78q60 0 83 17.5t23 52.5q0 31 -19.5 47.5t-75.5 16.5h-89v-134zM322 147h-66v428h164q77 0 114.5 -29.5t37.5 -92.5q0 -58 -32 -85t-80 -33l122 -188h-72l-114 186h-74v-186zM704 362q0 66 -23.5 123t-64.5 98.5t-96 65t-119 23.5q-65 0 -120.5 -23.5t-96.5 -65
t-64.5 -98.5t-23.5 -123q0 -68 23.5 -125t64.5 -98.5t96.5 -65t120.5 -23.5q64 0 119 23.5t96 65t64.5 98.5t23.5 125zM24 362q0 80 30 147.5t82 117t120 77.5t145 28q76 0 144 -28t119.5 -77.5t81.5 -117t30 -147.5q0 -81 -30 -149t-81.5 -117.5t-119.5 -77.5t-144 -28
q-77 0 -145 28t-120 77.5t-82 117.5t-30 149z" />
    <glyph glyph-name="copyright" unicode="&#xa9;" horiz-adv-x="800" 
d="M597 292q-15 -73 -65 -115.5t-119 -42.5q-50 0 -90 17.5t-68.5 48.5t-44 73t-15.5 90q0 49 14.5 90.5t42.5 71.5t68 47t90 17q35 0 66.5 -10t56 -29.5t41 -48t22.5 -65.5h-67q-8 43 -39.5 68t-78.5 25q-35 0 -62 -12.5t-45 -34.5t-27.5 -52t-9.5 -66q0 -35 10 -65.5
t29 -54t46 -37t61 -13.5q48 0 79 26.5t37 71.5h68zM704 362q0 66 -23.5 123t-64.5 98.5t-96 65t-119 23.5q-65 0 -120.5 -23.5t-96.5 -65t-64.5 -98.5t-23.5 -123q0 -68 23.5 -125t64.5 -98.5t96.5 -65t120.5 -23.5q64 0 119 23.5t96 65t64.5 98.5t23.5 125zM24 362
q0 80 30 147.5t82 117t120 77.5t145 28q76 0 144 -28t119.5 -77.5t81.5 -117t30 -147.5q0 -81 -30 -149t-81.5 -117.5t-119.5 -77.5t-144 -28q-77 0 -145 28t-120 77.5t-82 117.5t-30 149z" />
    <glyph glyph-name="Aacute" unicode="&#xc1;" horiz-adv-x="611" 
d="M439 902l-131 -142h-67l89 142h109zM196 294h219l-104 372h-11zM24 0l222 722h119l222 -722h-84l-68 226h-259l-68 -226h-84z" />
    <glyph glyph-name="Acircumflex" unicode="&#xc2;" horiz-adv-x="611" 
d="M258 902h94l100 -142h-80l-67 94l-65 -94h-80zM196 294h219l-104 372h-11zM24 0l222 722h119l222 -722h-84l-68 226h-259l-68 -226h-84z" />
    <glyph glyph-name="Adieresis" unicode="&#xc4;" horiz-adv-x="611" 
d="M183 770v94h88v-94h-88zM341 770v94h88v-94h-88zM196 294h219l-104 372h-11zM24 0l222 722h119l222 -722h-84l-68 226h-259l-68 -226h-84z" />
    <glyph glyph-name="Agrave" unicode="&#xc0;" horiz-adv-x="611" 
d="M282 902l89 -142h-67l-131 142h109zM196 294h219l-104 372h-11zM24 0l222 722h119l222 -722h-84l-68 226h-259l-68 -226h-84z" />
    <glyph glyph-name="Aring" unicode="&#xc5;" horiz-adv-x="611" 
d="M250 860q0 -23 16.5 -39.5t39.5 -16.5t39.5 16.5t16.5 39.5t-16.5 39.5t-39.5 16.5t-39.5 -16.5t-16.5 -39.5zM206 860q0 42 29 71t71 29t71 -29t29 -71t-29 -71t-71 -29t-71 29t-29 71zM196 294h219l-104 372h-11zM24 0l222 722h119l222 -722h-84l-68 226h-259l-68 -226
h-84z" />
    <glyph glyph-name="Atilde" unicode="&#xc3;" horiz-adv-x="611" 
d="M477 885q-2 -18 -9.5 -37t-20.5 -34.5t-30 -25.5t-37 -10t-39.5 6t-38.5 13q-20 8 -38.5 13.5t-36.5 5.5q-16 0 -28.5 -15t-13.5 -32h-50q5 45 31 77t76 32q20 0 38 -5.5t35 -12.5q17 -8 33 -13.5t32 -5.5q19 0 31.5 12t15.5 32h50zM196 294h219l-104 372h-11zM24 0
l222 722h119l222 -722h-84l-68 226h-259l-68 -226h-84z" />
    <glyph glyph-name="Ccedilla" unicode="&#xc7;" horiz-adv-x="611" 
d="M572 216q-11 -47 -30 -87t-46.5 -69t-65.5 -47t-87 -22l-39 -49l2 -2q15 5 30 5q43 0 64 -26t20 -58q-1 -42 -32.5 -63.5t-88.5 -21.5q-31 0 -53.5 6.5t-40.5 14.5l17 44q14 -9 31.5 -14t34.5 -5q56 0 56 43q0 16 -11 27t-30 11q-11 0 -23 -1.5t-23 -6.5l-17 19l56 77
q-56 4 -103 28t-80.5 70t-52 113.5t-18.5 158.5q0 88 18.5 157t54 116.5t87 72.5t116.5 25q101 0 160.5 -55t83.5 -155l-74 -22q-10 38 -24 68.5t-35 51.5t-51 32.5t-70 11.5q-39 0 -73 -18t-59 -55.5t-39.5 -94.5t-14.5 -135t14.5 -135.5t41.5 -94.5t64 -55t82 -18
q42 0 71.5 14.5t50 38.5t33.5 55t21 64z" />
    <glyph glyph-name="Eacute" unicode="&#xc9;" horiz-adv-x="611" 
d="M467 902l-131 -142h-67l89 142h109zM541 722v-68h-353v-242h251v-68h-251v-276h373v-68h-453v722h433z" />
    <glyph glyph-name="Ecircumflex" unicode="&#xca;" horiz-adv-x="611" 
d="M286 902h94l100 -142h-80l-67 94l-65 -94h-80zM541 722v-68h-353v-242h251v-68h-251v-276h373v-68h-453v722h433z" />
    <glyph glyph-name="Edieresis" unicode="&#xcb;" horiz-adv-x="611" 
d="M369 770v94h88v-94h-88zM211 770v94h88v-94h-88zM541 722v-68h-353v-242h251v-68h-251v-276h373v-68h-453v722h433z" />
    <glyph glyph-name="Egrave" unicode="&#xc8;" horiz-adv-x="611" 
d="M310 902l89 -142h-67l-131 142h109zM541 722v-68h-353v-242h251v-68h-251v-276h373v-68h-453v722h433z" />
    <glyph glyph-name="Iacute" unicode="&#xcd;" horiz-adv-x="333" 
d="M300 902l-131 -142h-67l89 142h109zM206 722v-722h-80v722h80z" />
    <glyph glyph-name="Icircumflex" unicode="&#xce;" horiz-adv-x="333" 
d="M119 902h94l100 -142h-80l-67 94l-65 -94h-80zM206 722v-722h-80v722h80z" />
    <glyph glyph-name="Idieresis" unicode="&#xcf;" horiz-adv-x="333" 
d="M202 770v94h88v-94h-88zM44 770v94h88v-94h-88zM206 722v-722h-80v722h80z" />
    <glyph glyph-name="Igrave" unicode="&#xcc;" horiz-adv-x="333" 
d="M143 902l89 -142h-67l-131 142h109zM206 722v-722h-80v722h80z" />
    <glyph glyph-name="Ntilde" unicode="&#xd1;" horiz-adv-x="722" 
d="M532 885q-2 -18 -9.5 -37t-20.5 -34.5t-30 -25.5t-37 -10t-39.5 6t-38.5 13q-20 8 -38.5 13.5t-36.5 5.5q-16 0 -28.5 -15t-13.5 -32h-50q5 45 31 77t76 32q20 0 38 -5.5t35 -12.5q17 -8 33 -13.5t32 -5.5q19 0 31.5 12t15.5 32h50zM108 0v722h115l315 -556h4v556h72
v-722h-66l-366 644h-2v-644h-72z" />
    <glyph glyph-name="Oacute" unicode="&#xd3;" horiz-adv-x="667" 
d="M467 902l-131 -142h-67l89 142h109zM131 361q0 -154 53.5 -228.5t148.5 -74.5t148.5 74.5t53.5 228.5t-53.5 228.5t-148.5 74.5t-148.5 -74.5t-53.5 -228.5zM51 361q0 182 74 276.5t208 94.5t208 -94.5t74 -276.5t-74 -276.5t-208 -94.5t-208 94.5t-74 276.5z" />
    <glyph glyph-name="Ocircumflex" unicode="&#xd4;" horiz-adv-x="667" 
d="M286 902h94l100 -142h-80l-67 94l-65 -94h-80zM131 361q0 -154 53.5 -228.5t148.5 -74.5t148.5 74.5t53.5 228.5t-53.5 228.5t-148.5 74.5t-148.5 -74.5t-53.5 -228.5zM51 361q0 182 74 276.5t208 94.5t208 -94.5t74 -276.5t-74 -276.5t-208 -94.5t-208 94.5t-74 276.5z
" />
    <glyph glyph-name="Odieresis" unicode="&#xd6;" horiz-adv-x="667" 
d="M211 770v94h88v-94h-88zM369 770v94h88v-94h-88zM131 361q0 -154 53.5 -228.5t148.5 -74.5t148.5 74.5t53.5 228.5t-53.5 228.5t-148.5 74.5t-148.5 -74.5t-53.5 -228.5zM51 361q0 182 74 276.5t208 94.5t208 -94.5t74 -276.5t-74 -276.5t-208 -94.5t-208 94.5t-74 276.5
z" />
    <glyph glyph-name="Ograve" unicode="&#xd2;" horiz-adv-x="667" 
d="M310 902l89 -142h-67l-131 142h109zM131 361q0 -154 53.5 -228.5t148.5 -74.5t148.5 74.5t53.5 228.5t-53.5 228.5t-148.5 74.5t-148.5 -74.5t-53.5 -228.5zM51 361q0 182 74 276.5t208 94.5t208 -94.5t74 -276.5t-74 -276.5t-208 -94.5t-208 94.5t-74 276.5z" />
    <glyph glyph-name="Otilde" unicode="&#xd5;" horiz-adv-x="667" 
d="M505 885q-2 -18 -9.5 -37t-20.5 -34.5t-30 -25.5t-37 -10t-39.5 6t-38.5 13q-20 8 -38.5 13.5t-36.5 5.5q-16 0 -28.5 -15t-13.5 -32h-50q5 45 31 77t76 32q20 0 38 -5.5t35 -12.5q17 -8 33 -13.5t32 -5.5q19 0 31.5 12t15.5 32h50zM131 361q0 -154 53.5 -228.5
t148.5 -74.5t148.5 74.5t53.5 228.5t-53.5 228.5t-148.5 74.5t-148.5 -74.5t-53.5 -228.5zM51 361q0 182 74 276.5t208 94.5t208 -94.5t74 -276.5t-74 -276.5t-208 -94.5t-208 94.5t-74 276.5z" />
    <glyph glyph-name="Uacute" unicode="&#xda;" horiz-adv-x="722" 
d="M494 902l-131 -142h-67l89 142h109zM188 722v-510q0 -32 11 -60t33 -49t54.5 -33t74.5 -12t74.5 12t54.5 33t33 49t11 60v510h80v-504q0 -54 -18.5 -96.5t-52 -71.5t-80 -44.5t-102.5 -15.5t-102.5 15.5t-80 44.5t-52 71.5t-18.5 96.5v504h80z" />
    <glyph glyph-name="Ucircumflex" unicode="&#xdb;" horiz-adv-x="722" 
d="M313 902h94l100 -142h-80l-67 94l-65 -94h-80zM188 722v-510q0 -32 11 -60t33 -49t54.5 -33t74.5 -12t74.5 12t54.5 33t33 49t11 60v510h80v-504q0 -54 -18.5 -96.5t-52 -71.5t-80 -44.5t-102.5 -15.5t-102.5 15.5t-80 44.5t-52 71.5t-18.5 96.5v504h80z" />
    <glyph glyph-name="Udieresis" unicode="&#xdc;" horiz-adv-x="722" 
d="M396 770v94h88v-94h-88zM238 770v94h88v-94h-88zM188 722v-510q0 -32 11 -60t33 -49t54.5 -33t74.5 -12t74.5 12t54.5 33t33 49t11 60v510h80v-504q0 -54 -18.5 -96.5t-52 -71.5t-80 -44.5t-102.5 -15.5t-102.5 15.5t-80 44.5t-52 71.5t-18.5 96.5v504h80z" />
    <glyph glyph-name="Ugrave" unicode="&#xd9;" horiz-adv-x="722" 
d="M337 902l89 -142h-67l-131 142h109zM188 722v-510q0 -32 11 -60t33 -49t54.5 -33t74.5 -12t74.5 12t54.5 33t33 49t11 60v510h80v-504q0 -54 -18.5 -96.5t-52 -71.5t-80 -44.5t-102.5 -15.5t-102.5 15.5t-80 44.5t-52 71.5t-18.5 96.5v504h80z" />
    <glyph glyph-name="Ydieresis" unicode="&#x178;" horiz-adv-x="556" 
d="M313 770v94h88v-94h-88zM155 770v94h88v-94h-88zM238 304l-222 418h88l174 -331l174 331h88l-222 -418v-304h-80v304z" />
    <glyph glyph-name="aacute" unicode="&#xe1;" 
d="M378 722l-131 -142h-67l89 142h109zM360 281q-246 -43 -246 -149q0 -18 8 -33t20 -25.5t27.5 -16t30.5 -5.5q19 0 41 6.5t43 18.5t40.5 27.5t35.5 33.5v143zM57 420q25 45 73 77.5t122 32.5q33 0 65 -8.5t57.5 -27t41.5 -48t16 -72.5v-262q0 -43 3.5 -67.5t8.5 -44.5h-74
l-8 72q-27 -30 -70 -56t-102 -26q-30 0 -57 9t-47 27t-32 44.5t-12 62.5q0 43 17 75.5t55 58t98.5 44.5t147.5 34v28q0 52 -30 73.5t-77 21.5q-30 0 -52.5 -7.5t-38.5 -19.5t-26.5 -26.5t-15.5 -27.5z" />
    <glyph glyph-name="acircumflex" unicode="&#xe2;" 
d="M197 722h94l100 -142h-80l-67 94l-65 -94h-80zM360 281q-246 -43 -246 -149q0 -18 8 -33t20 -25.5t27.5 -16t30.5 -5.5q19 0 41 6.5t43 18.5t40.5 27.5t35.5 33.5v143zM57 420q25 45 73 77.5t122 32.5q33 0 65 -8.5t57.5 -27t41.5 -48t16 -72.5v-262q0 -43 3.5 -67.5
t8.5 -44.5h-74l-8 72q-27 -30 -70 -56t-102 -26q-30 0 -57 9t-47 27t-32 44.5t-12 62.5q0 43 17 75.5t55 58t98.5 44.5t147.5 34v28q0 52 -30 73.5t-77 21.5q-30 0 -52.5 -7.5t-38.5 -19.5t-26.5 -26.5t-15.5 -27.5z" />
    <glyph glyph-name="adieresis" unicode="&#xe4;" 
d="M122 590v94h88v-94h-88zM280 590v94h88v-94h-88zM360 281q-246 -43 -246 -149q0 -18 8 -33t20 -25.5t27.5 -16t30.5 -5.5q19 0 41 6.5t43 18.5t40.5 27.5t35.5 33.5v143zM57 420q25 45 73 77.5t122 32.5q33 0 65 -8.5t57.5 -27t41.5 -48t16 -72.5v-262q0 -43 3.5 -67.5
t8.5 -44.5h-74l-8 72q-27 -30 -70 -56t-102 -26q-30 0 -57 9t-47 27t-32 44.5t-12 62.5q0 43 17 75.5t55 58t98.5 44.5t147.5 34v28q0 52 -30 73.5t-77 21.5q-30 0 -52.5 -7.5t-38.5 -19.5t-26.5 -26.5t-15.5 -27.5z" />
    <glyph glyph-name="agrave" unicode="&#xe0;" 
d="M221 722l89 -142h-67l-131 142h109zM360 281q-246 -43 -246 -149q0 -18 8 -33t20 -25.5t27.5 -16t30.5 -5.5q19 0 41 6.5t43 18.5t40.5 27.5t35.5 33.5v143zM57 420q25 45 73 77.5t122 32.5q33 0 65 -8.5t57.5 -27t41.5 -48t16 -72.5v-262q0 -43 3.5 -67.5t8.5 -44.5h-74
l-8 72q-27 -30 -70 -56t-102 -26q-30 0 -57 9t-47 27t-32 44.5t-12 62.5q0 43 17 75.5t55 58t98.5 44.5t147.5 34v28q0 52 -30 73.5t-77 21.5q-30 0 -52.5 -7.5t-38.5 -19.5t-26.5 -26.5t-15.5 -27.5z" />
    <glyph glyph-name="aring" unicode="&#xe5;" 
d="M189 680q0 -23 16.5 -39.5t39.5 -16.5t39.5 16.5t16.5 39.5t-16.5 39.5t-39.5 16.5t-39.5 -16.5t-16.5 -39.5zM145 680q0 42 29 71t71 29t71 -29t29 -71t-29 -71t-71 -29t-71 29t-29 71zM360 281q-246 -43 -246 -149q0 -18 8 -33t20 -25.5t27.5 -16t30.5 -5.5
q19 0 41 6.5t43 18.5t40.5 27.5t35.5 33.5v143zM57 420q25 45 73 77.5t122 32.5q33 0 65 -8.5t57.5 -27t41.5 -48t16 -72.5v-262q0 -43 3.5 -67.5t8.5 -44.5h-74l-8 72q-27 -30 -70 -56t-102 -26q-30 0 -57 9t-47 27t-32 44.5t-12 62.5q0 43 17 75.5t55 58t98.5 44.5
t147.5 34v28q0 52 -30 73.5t-77 21.5q-30 0 -52.5 -7.5t-38.5 -19.5t-26.5 -26.5t-15.5 -27.5z" />
    <glyph glyph-name="atilde" unicode="&#xe3;" 
d="M416 705q-2 -18 -9.5 -37t-20.5 -34.5t-30 -25.5t-37 -10t-39.5 6t-38.5 13q-20 8 -38.5 13.5t-36.5 5.5q-16 0 -28.5 -15t-13.5 -32h-50q5 45 31 77t76 32q20 0 38 -5.5t35 -12.5q17 -8 33 -13.5t32 -5.5q19 0 31.5 12t15.5 32h50zM360 281q-246 -43 -246 -149
q0 -18 8 -33t20 -25.5t27.5 -16t30.5 -5.5q19 0 41 6.5t43 18.5t40.5 27.5t35.5 33.5v143zM57 420q25 45 73 77.5t122 32.5q33 0 65 -8.5t57.5 -27t41.5 -48t16 -72.5v-262q0 -43 3.5 -67.5t8.5 -44.5h-74l-8 72q-27 -30 -70 -56t-102 -26q-30 0 -57 9t-47 27t-32 44.5
t-12 62.5q0 43 17 75.5t55 58t98.5 44.5t147.5 34v28q0 52 -30 73.5t-77 21.5q-30 0 -52.5 -7.5t-38.5 -19.5t-26.5 -26.5t-15.5 -27.5z" />
    <glyph glyph-name="ccedilla" unicode="&#xe7;" 
d="M376 365q-15 48 -45.5 75.5t-77.5 27.5q-67 0 -104 -54t-37 -154t37 -154t104 -54q25 0 44.5 4.5t36.5 15.5t32 29.5t30 46.5l58 -26q-18 -30 -35.5 -53.5t-38 -40t-45.5 -25.5t-57 -12l-39 -49l2 -2q15 5 30 5q43 0 64 -26t20 -58q-1 -42 -32.5 -63.5t-88.5 -21.5
q-31 0 -53.5 6.5t-40.5 14.5l17 44q14 -9 31.5 -14t34.5 -5q56 0 56 43q0 16 -11 27t-30 11q-11 0 -23 -1.5t-23 -6.5l-17 19l56 77q-44 4 -79.5 24t-60 54.5t-38 82.5t-13.5 108q0 63 15 113t42.5 85t67 53.5t88.5 18.5q40 0 70 -10.5t52.5 -29.5t39 -45t28.5 -56z" />
    <glyph glyph-name="eacute" unicode="&#xe9;" 
d="M383 722l-131 -142h-67l89 142h109zM378 308q0 72 -32.5 116t-91.5 44q-66 0 -100.5 -44t-39.5 -116h264zM466 111q-13 -22 -29 -43.5t-39.5 -39t-55.5 -28t-76 -10.5t-84.5 15.5t-72 48.5t-50.5 84t-19 122q0 63 15 113t43 85t67 53.5t87 18.5q40 0 76 -13.5t63 -42
t43 -73.5t16 -107v-48h-338q0 -43 12 -78.5t33 -61t49 -40t60 -14.5q48 0 84.5 23.5t59.5 64.5z" />
    <glyph glyph-name="ecircumflex" unicode="&#xea;" 
d="M202 722h94l100 -142h-80l-67 94l-65 -94h-80zM378 308q0 72 -32.5 116t-91.5 44q-66 0 -100.5 -44t-39.5 -116h264zM466 111q-13 -22 -29 -43.5t-39.5 -39t-55.5 -28t-76 -10.5t-84.5 15.5t-72 48.5t-50.5 84t-19 122q0 63 15 113t43 85t67 53.5t87 18.5q40 0 76 -13.5
t63 -42t43 -73.5t16 -107v-48h-338q0 -43 12 -78.5t33 -61t49 -40t60 -14.5q48 0 84.5 23.5t59.5 64.5z" />
    <glyph glyph-name="edieresis" unicode="&#xeb;" 
d="M127 590v94h88v-94h-88zM285 590v94h88v-94h-88zM378 308q0 72 -32.5 116t-91.5 44q-66 0 -100.5 -44t-39.5 -116h264zM466 111q-13 -22 -29 -43.5t-39.5 -39t-55.5 -28t-76 -10.5t-84.5 15.5t-72 48.5t-50.5 84t-19 122q0 63 15 113t43 85t67 53.5t87 18.5
q40 0 76 -13.5t63 -42t43 -73.5t16 -107v-48h-338q0 -43 12 -78.5t33 -61t49 -40t60 -14.5q48 0 84.5 23.5t59.5 64.5z" />
    <glyph glyph-name="egrave" unicode="&#xe8;" 
d="M226 722l89 -142h-67l-131 142h109zM378 308q0 72 -32.5 116t-91.5 44q-66 0 -100.5 -44t-39.5 -116h264zM466 111q-13 -22 -29 -43.5t-39.5 -39t-55.5 -28t-76 -10.5t-84.5 15.5t-72 48.5t-50.5 84t-19 122q0 63 15 113t43 85t67 53.5t87 18.5q40 0 76 -13.5t63 -42
t43 -73.5t16 -107v-48h-338q0 -43 12 -78.5t33 -61t49 -40t60 -14.5q48 0 84.5 23.5t59.5 64.5z" />
    <glyph glyph-name="iacute" unicode="&#xed;" horiz-adv-x="278" 
d="M272 722l-131 -142h-67l89 142h109zM103 520h72v-520h-72v520z" />
    <glyph glyph-name="icircumflex" unicode="&#xee;" horiz-adv-x="278" 
d="M91 722h94l100 -142h-80l-67 94l-65 -94h-80zM103 520h72v-520h-72v520z" />
    <glyph glyph-name="idieresis" unicode="&#xef;" horiz-adv-x="278" 
d="M174 590v94h88v-94h-88zM16 590v94h88v-94h-88zM103 520h72v-520h-72v520z" />
    <glyph glyph-name="igrave" unicode="&#xec;" horiz-adv-x="278" 
d="M115 722l89 -142h-67l-131 142h109zM103 520h72v-520h-72v520z" />
    <glyph glyph-name="ntilde" unicode="&#xf1;" horiz-adv-x="556" 
d="M449 705q-2 -18 -9.5 -37t-20.5 -34.5t-30 -25.5t-37 -10t-39.5 6t-38.5 13q-20 8 -38.5 13.5t-36.5 5.5q-16 0 -28.5 -15t-13.5 -32h-50q5 45 31 77t76 32q20 0 38 -5.5t35 -12.5q17 -8 33 -13.5t32 -5.5q19 0 31.5 12t15.5 32h50zM161 520v-70h2q31 35 70 57.5t84 22.5
q29 0 56 -8t48 -26t33.5 -47t12.5 -71v-378h-72v376q0 52 -23 72t-62 20q-20 0 -41.5 -7.5t-41 -19t-37 -25.5t-29.5 -27v-389h-72v520h72z" />
    <glyph glyph-name="oacute" unicode="&#xf3;" 
d="M383 722l-131 -142h-67l89 142h109zM391 260q0 101 -38 154.5t-103 53.5t-103 -53.5t-38 -154.5t38 -154.5t103 -53.5t103 53.5t38 154.5zM463 260q0 -56 -13.5 -105.5t-40 -86t-66.5 -57.5t-93 -21t-93 21t-66.5 57.5t-40 86t-13.5 105.5t13.5 105.5t40 86t66.5 57.5
t93 21t93 -21t66.5 -57.5t40 -86t13.5 -105.5z" />
    <glyph glyph-name="ocircumflex" unicode="&#xf4;" 
d="M202 722h94l100 -142h-80l-67 94l-65 -94h-80zM391 260q0 101 -38 154.5t-103 53.5t-103 -53.5t-38 -154.5t38 -154.5t103 -53.5t103 53.5t38 154.5zM463 260q0 -56 -13.5 -105.5t-40 -86t-66.5 -57.5t-93 -21t-93 21t-66.5 57.5t-40 86t-13.5 105.5t13.5 105.5t40 86
t66.5 57.5t93 21t93 -21t66.5 -57.5t40 -86t13.5 -105.5z" />
    <glyph glyph-name="odieresis" unicode="&#xf6;" 
d="M127 590v94h88v-94h-88zM285 590v94h88v-94h-88zM391 260q0 101 -38 154.5t-103 53.5t-103 -53.5t-38 -154.5t38 -154.5t103 -53.5t103 53.5t38 154.5zM463 260q0 -56 -13.5 -105.5t-40 -86t-66.5 -57.5t-93 -21t-93 21t-66.5 57.5t-40 86t-13.5 105.5t13.5 105.5t40 86
t66.5 57.5t93 21t93 -21t66.5 -57.5t40 -86t13.5 -105.5z" />
    <glyph glyph-name="ograve" unicode="&#xf2;" 
d="M226 722l89 -142h-67l-131 142h109zM391 260q0 101 -38 154.5t-103 53.5t-103 -53.5t-38 -154.5t38 -154.5t103 -53.5t103 53.5t38 154.5zM463 260q0 -56 -13.5 -105.5t-40 -86t-66.5 -57.5t-93 -21t-93 21t-66.5 57.5t-40 86t-13.5 105.5t13.5 105.5t40 86t66.5 57.5
t93 21t93 -21t66.5 -57.5t40 -86t13.5 -105.5z" />
    <glyph glyph-name="otilde" unicode="&#xf5;" 
d="M421 705q-2 -18 -9.5 -37t-20.5 -34.5t-30 -25.5t-37 -10t-39.5 6t-38.5 13q-20 8 -38.5 13.5t-36.5 5.5q-16 0 -28.5 -15t-13.5 -32h-50q5 45 31 77t76 32q20 0 38 -5.5t35 -12.5q17 -8 33 -13.5t32 -5.5q19 0 31.5 12t15.5 32h50zM391 260q0 101 -38 154.5t-103 53.5
t-103 -53.5t-38 -154.5t38 -154.5t103 -53.5t103 53.5t38 154.5zM463 260q0 -56 -13.5 -105.5t-40 -86t-66.5 -57.5t-93 -21t-93 21t-66.5 57.5t-40 86t-13.5 105.5t13.5 105.5t40 86t66.5 57.5t93 21t93 -21t66.5 -57.5t40 -86t13.5 -105.5z" />
    <glyph glyph-name="uacute" unicode="&#xfa;" horiz-adv-x="556" 
d="M411 722l-131 -142h-67l89 142h109zM395 0v70h-2q-31 -35 -70 -57.5t-84 -22.5q-29 0 -56 8t-48 26t-33.5 47t-12.5 71v378h72v-376q0 -52 23 -72t62 -20q20 0 41.5 7.5t41 19t37 25.5t29.5 27v389h72v-520h-72z" />
    <glyph glyph-name="ucircumflex" unicode="&#xfb;" horiz-adv-x="556" 
d="M230 722h94l100 -142h-80l-67 94l-65 -94h-80zM395 0v70h-2q-31 -35 -70 -57.5t-84 -22.5q-29 0 -56 8t-48 26t-33.5 47t-12.5 71v378h72v-376q0 -52 23 -72t62 -20q20 0 41.5 7.5t41 19t37 25.5t29.5 27v389h72v-520h-72z" />
    <glyph glyph-name="udieresis" unicode="&#xfc;" horiz-adv-x="556" 
d="M313 590v94h88v-94h-88zM155 590v94h88v-94h-88zM395 0v70h-2q-31 -35 -70 -57.5t-84 -22.5q-29 0 -56 8t-48 26t-33.5 47t-12.5 71v378h72v-376q0 -52 23 -72t62 -20q20 0 41.5 7.5t41 19t37 25.5t29.5 27v389h72v-520h-72z" />
    <glyph glyph-name="ugrave" unicode="&#xf9;" horiz-adv-x="556" 
d="M254 722l89 -142h-67l-131 142h109zM395 0v70h-2q-31 -35 -70 -57.5t-84 -22.5q-29 0 -56 8t-48 26t-33.5 47t-12.5 71v378h72v-376q0 -52 23 -72t62 -20q20 0 41.5 7.5t41 19t37 25.5t29.5 27v389h72v-520h-72z" />
    <glyph glyph-name="ydieresis" unicode="&#xff;" horiz-adv-x="444" 
d="M257 590v94h88v-94h-88zM99 590v94h88v-94h-88zM428 520l-183 -566q-14 -44 -33.5 -72t-42.5 -44.5t-48.5 -23t-50.5 -6.5q-18 0 -29.5 2t-22.5 4v59q8 -1 17.5 -2t21.5 -1q16 0 36 3.5t39 16t35.5 37t25.5 67.5l-181 526h76l140 -397h2l122 397h76z" />
    <glyph glyph-name="numbersign" unicode="#" horiz-adv-x="611" 
d="M230 286h135l21 152h-136zM191 0h-62l31 230h-99v56h107l20 152h-99v56h107l31 228h62l-31 -228h136l30 228h62l-30 -228h94v-56h-102l-21 -152h95v-56h-103l-31 -230h-62l31 230h-135z" />
    <glyph glyph-name="exclam" unicode="!" horiz-adv-x="333" 
d="M215 110v-110h-98v110h98zM219 722l-21 -494h-64l-21 494h106z" />
    <glyph glyph-name="quotedbl" unicode="&#x22;" horiz-adv-x="333" 
d="M195 722h62v-270h-62v270zM76 722h62v-270h-62v270z" />
    <glyph glyph-name="Lslash" unicode="&#x141;" horiz-adv-x="556" 
d="M188 68h342v-68h-422v305l-92 -37v68l92 37v349h80v-317l192 78v-68l-192 -78v-269z" />
    <glyph glyph-name="lslash" unicode="&#x142;" horiz-adv-x="278" 
d="M175 0h-72v355l-89 -46v68l89 46v299h72v-262l89 45v-68l-89 -45v-392z" />
    <glyph glyph-name="onesuperior" unicode="&#xb9;" horiz-adv-x="366" 
d="M219 732v-390h79v-50h-213v50h76v340l-85 -13v33q24 7 49 14t40 16h54z" />
    <glyph glyph-name="Eth" unicode="&#xd0;" horiz-adv-x="667" 
d="M368 412v-68h-188v-276h108q125 0 188.5 73.5t63.5 219.5q0 79 -18 134.5t-50.5 91t-78.5 51.5t-101 16h-112v-242h188zM100 412v310h194q73 0 133.5 -23t103 -68.5t66 -113t23.5 -156.5q0 -80 -21 -146t-63 -114t-103.5 -74.5t-142.5 -26.5h-190v344h-68v68h68z" />
    <glyph glyph-name="onehalf" unicode="&#xbd;" horiz-adv-x="916" 
d="M231 732v-390h79v-50h-213v50h76v340l-85 -13v33q24 7 49 14t40 16h54zM199 -10l439 742h62l-442 -742h-59zM550 0v54q20 37 46.5 63.5t55 47.5t55.5 37.5t48.5 33.5t35 36.5t13.5 45.5q0 32 -22.5 52t-66.5 20q-26 0 -46 -7.5t-34.5 -20t-23.5 -28.5t-14 -32l-46 16
q7 24 20.5 46t34 39t48.5 27t64 10q63 0 101.5 -31t38.5 -85q0 -35 -14.5 -61.5t-38 -47.5t-52 -39.5l-57 -37t-53 -40t-39.5 -48.5h256v-50h-310z" />
    <glyph glyph-name="Thorn" unicode="&#xde;" horiz-adv-x="611" 
d="M180 250h136q50 0 84 8.5t54.5 25t29.5 41.5t9 57q0 65 -39 98.5t-120 33.5h-154v-264zM100 0v722h80v-140h172q58 0 99.5 -15.5t68.5 -42.5t40 -64t13 -80q0 -90 -64.5 -144t-200.5 -54h-128v-182h-80z" />
    <glyph glyph-name="onequarter" unicode="&#xbc;" horiz-adv-x="916" 
d="M586 152h147v224h-2zM231 732v-390h79v-50h-213v50h76v340l-85 -13v33q24 7 49 14t40 16h54zM219 -10l439 742h62l-442 -742h-59zM787 102v-102h-54v102h-208v45l185 287h77v-282h81v-50h-81z" />
    <glyph glyph-name="brokenbar" unicode="&#xa6;" horiz-adv-x="222" 
d="M80 732h62v-280h-62v280zM80 270h62v-280h-62v280z" />
    <glyph glyph-name="thorn" unicode="&#xfe;" horiz-adv-x="556" 
d="M160 124q29 -32 64 -52t67 -20q31 0 58 11t47 36t31 65.5t11 99.5q0 100 -39.5 152t-107.5 52q-35 0 -64 -16t-67 -54v-274zM88 -192v914h72v-263h2q10 15 25.5 27.5t33.5 22.5t37.5 15.5t38.5 5.5q34 0 72 -13t69 -44t51.5 -83t20.5 -130q0 -76 -20.5 -127.5t-51 -83
t-67.5 -45.5t-70 -14q-37 0 -72 16.5t-65 41.5l-4 2v-242h-72z" />
    <glyph glyph-name="threequarters" unicode="&#xbe;" horiz-adv-x="916" 
d="M586 152h147v224h-2zM235 -10l439 742h62l-442 -742h-59zM147 549h41q57 0 86.5 17t29.5 58q0 23 -22.5 40.5t-59.5 17.5q-43 0 -65 -12.5t-44 -38.5l-42 28q24 31 59 52t92 21q63 0 99.5 -28t36.5 -80q0 -39 -19 -62.5t-46 -32.5v-2q22 -7 37.5 -20t25 -29t14 -33.5
t4.5 -33.5q0 -56 -42.5 -90.5t-116.5 -34.5q-34 0 -61 8.5t-48 21t-35.5 27.5t-22.5 27l40 32q27 -36 58.5 -51t68.5 -15q51 0 78 20t27 54q0 45 -28.5 67t-99.5 22h-45v50zM787 102v-102h-54v102h-208v45l185 287h77v-282h81v-50h-81z" />
    <glyph glyph-name="twosuperior" unicode="&#xb2;" horiz-adv-x="366" 
d="M28 292v54q20 37 46.5 63.5t55 47.5t55.5 37.5t48.5 33.5t35 36.5t13.5 45.5q0 32 -22.5 52t-66.5 20q-26 0 -46 -7.5t-34.5 -20t-23.5 -28.5t-14 -32l-46 16q7 24 20.5 46t34 39t48.5 27t64 10q63 0 101.5 -31t38.5 -85q0 -35 -14.5 -61.5t-38 -47.5t-52 -39.5l-57 -37
t-53 -40t-39.5 -48.5h256v-50h-310z" />
    <glyph glyph-name="minus" unicode="&#x2212;" horiz-adv-x="600" 
d="M40 229v62h520v-62h-520z" />
    <glyph glyph-name="eth" unicode="&#xf0;" 
d="M250 52q72 0 106.5 52.5t34.5 141.5q0 43 -8.5 78t-26 60t-44 38.5t-62.5 13.5t-62.5 -13.5t-44 -38.5t-26 -60t-8.5 -78q0 -89 34.5 -141.5t106.5 -52.5zM191 722q45 -28 85 -68l110 60l30 -50l-97 -55q31 -35 57 -76t45.5 -86t30.5 -93t11 -96q0 -59 -13.5 -108
t-40 -84.5t-66.5 -55.5t-93 -20t-93 18.5t-66.5 52t-40 80.5t-13.5 105q0 56 13.5 102.5t40 79.5t66.5 51.5t93 18.5q21 0 41.5 -5t32.5 -9q-11 23 -27.5 46t-36.5 46l-106 -58l-34 48l101 55q-28 27 -53 47t-40 30z" />
    <glyph glyph-name="multiply" unicode="&#xd7;" horiz-adv-x="600" 
d="M516 520l44 -44l-216 -216l216 -216l-44 -44l-216 216l-216 -216l-44 44l216 216l-216 216l44 44l216 -218z" />
    <glyph glyph-name="threesuperior" unicode="&#xb3;" horiz-adv-x="366" 
d="M111 549h41q57 0 86.5 17t29.5 58q0 23 -22.5 40.5t-59.5 17.5q-43 0 -65 -12.5t-44 -38.5l-42 28q24 31 59 52t92 21q63 0 99.5 -28t36.5 -80q0 -39 -19 -62.5t-46 -32.5v-2q22 -7 37.5 -20t25 -29t14 -33.5t4.5 -33.5q0 -56 -42.5 -90.5t-116.5 -34.5q-34 0 -61 8.5
t-48 21t-35.5 27.5t-22.5 27l40 32q27 -36 58.5 -51t68.5 -15q51 0 78 20t27 54q0 45 -28.5 67t-99.5 22h-45v50z" />
    <glyph glyph-name="Scaron" unicode="&#x160;" horiz-adv-x="611" 
d="M240 902l65 -94l67 94h80l-100 -142h-94l-98 142h80zM448 538q-7 26 -21 49t-35 40t-49 27t-63 10q-63 0 -98.5 -29t-36.5 -83q0 -30 17 -51t45.5 -37.5t65 -30.5t74.5 -28.5t75 -31.5t65.5 -40.5t46 -55.5t17.5 -75q0 -39 -12 -77t-40.5 -68t-75 -48.5t-115.5 -18.5
q-59 0 -101.5 17.5t-72.5 44.5t-50 60.5t-34 65.5l73 26q11 -29 27 -55t38.5 -46.5t53 -32.5t70.5 -12q80 0 119.5 37t39.5 93q0 46 -30 74.5t-75 49.5t-98 38.5t-98 42t-75 60.5t-30 93q0 39 15.5 73t44 59t68.5 39.5t89 14.5q85 0 147 -44t91 -134z" />
    <glyph glyph-name="Yacute" unicode="&#xdd;" horiz-adv-x="556" 
d="M411 902l-131 -142h-67l89 142h109zM238 304l-222 418h88l174 -331l174 331h88l-222 -418v-304h-80v304z" />
    <glyph glyph-name="Zcaron" unicode="&#x17d;" horiz-adv-x="556" 
d="M212 902l65 -94l67 94h80l-100 -142h-94l-98 142h80zM511 0h-466v58l362 596h-329v68h429v-52l-368 -602h372v-68z" />
    <glyph glyph-name="scaron" unicode="&#x161;" horiz-adv-x="444" 
d="M156 722l65 -94l67 94h80l-100 -142h-94l-98 142h80zM81 132q26 -37 63 -58.5t86 -21.5q58 0 85 26.5t27 59.5t-23 51.5t-57 30.5t-73.5 22.5t-73 27.5t-55.5 44.5t-20 75.5q2 68 49.5 104.5t122.5 35.5q25 0 51.5 -7t50 -19t43.5 -28.5t33 -36.5l-50 -44q-30 37 -61 55
t-73 18q-46 0 -70 -21t-24 -56q0 -28 22.5 -44t56 -27.5t72.5 -22.5t72.5 -29.5t56 -48t22.5 -77.5q0 -38 -15 -66.5t-40.5 -47.5t-58.5 -28.5t-68 -9.5q-61 0 -116.5 25.5t-91.5 73.5z" />
    <glyph glyph-name="yacute" unicode="&#xfd;" horiz-adv-x="444" 
d="M355 722l-131 -142h-67l89 142h109zM428 520l-183 -566q-14 -44 -33.5 -72t-42.5 -44.5t-48.5 -23t-50.5 -6.5q-18 0 -29.5 2t-22.5 4v59q8 -1 17.5 -2t21.5 -1q16 0 36 3.5t39 16t35.5 37t25.5 67.5l-181 526h76l140 -397h2l122 397h76z" />
    <glyph glyph-name="zcaron" unicode="&#x17e;" horiz-adv-x="444" 
d="M156 722l65 -94l67 94h80l-100 -142h-94l-98 142h80zM414 0h-384v52l284 406h-256v62h354v-52l-284 -406h286v-62z" />
    <glyph glyph-name="Euro" unicode="&#x20ac;" horiz-adv-x="611" 
d="M538 546q-7 13 -21.5 34.5t-36.5 41t-52.5 34t-70.5 14.5q-48 0 -81.5 -20.5t-54 -52.5t-29.5 -70.5t-10 -74.5h324l-21 -62h-301v-88h271l-21 -62h-250q1 -40 15 -74.5t37.5 -59.5t55 -39.5t68.5 -14.5t65 9t49 23t36.5 31t27.5 33v-83q-31 -35 -74 -55t-103 -20
q-56 0 -101 19.5t-77 53.5t-51 79.5t-23 97.5h-83l21 62h62v88h-83l21 62h62q0 56 17 107t48.5 89.5t77.5 61t105 22.5q20 0 46 -3t53.5 -13.5t56 -31t53.5 -56.5z" />
    <glyph glyph-name="nonbreakingspace" horiz-adv-x="305" 
 />
    <glyph glyph-name="hyphenminus" horiz-adv-x="333" 
d="M40 229v62h252v-62h-252z" />
    <hkern u1="&#x2019;" u2="s" k="37" />
    <hkern u1="&#x2019;" u2="&#x2019;" k="55" />
    <hkern u1="A" u2="y" k="37" />
    <hkern u1="A" u2="w" k="37" />
    <hkern u1="A" u2="v" k="55" />
    <hkern u1="A" u2="Y" k="92" />
    <hkern u1="A" u2="W" k="74" />
    <hkern u1="A" u2="V" k="74" />
    <hkern u1="A" u2="T" k="92" />
    <hkern u1="A" u2="&#x2019;" k="74" />
    <hkern u1="F" u2="A" k="55" />
    <hkern u1="F" u2="&#x2e;" k="111" />
    <hkern u1="F" u2="&#x2c;" k="111" />
    <hkern u1="L" u2="y" k="37" />
    <hkern u1="L" u2="Y" k="92" />
    <hkern u1="L" u2="W" k="74" />
    <hkern u1="L" u2="V" k="92" />
    <hkern u1="L" u2="T" k="74" />
    <hkern u1="L" u2="&#x2019;" k="92" />
    <hkern u1="P" u2="A" k="37" />
    <hkern u1="P" u2="&#x2e;" k="129" />
    <hkern u1="P" u2="&#x2c;" k="129" />
    <hkern u1="R" u2="y" k="18" />
    <hkern u1="R" u2="Y" k="37" />
    <hkern u1="R" u2="W" k="18" />
    <hkern u1="R" u2="V" k="37" />
    <hkern u1="R" u2="T" k="37" />
    <hkern u1="T" u2="y" k="92" />
    <hkern u1="T" u2="w" k="92" />
    <hkern u1="T" u2="u" k="92" />
    <hkern u1="T" u2="s" k="92" />
    <hkern u1="T" u2="r" k="92" />
    <hkern u1="T" u2="o" k="92" />
    <hkern u1="T" u2="i" k="92" />
    <hkern u1="T" u2="e" k="92" />
    <hkern u1="T" u2="c" k="92" />
    <hkern u1="T" u2="a" k="92" />
    <hkern u1="T" u2="A" k="74" />
    <hkern u1="T" u2="&#x3b;" k="92" />
    <hkern u1="T" u2="&#x3a;" k="92" />
    <hkern u1="T" u2="&#x2e;" k="92" />
    <hkern u1="T" u2="&#x2d;" k="92" />
    <hkern u1="T" u2="&#x2c;" k="92" />
    <hkern u1="V" u2="o" k="18" />
    <hkern u1="V" u2="e" k="18" />
    <hkern u1="V" u2="a" k="18" />
    <hkern u1="V" u2="A" k="74" />
    <hkern u1="V" u2="&#x3b;" k="18" />
    <hkern u1="V" u2="&#x3a;" k="18" />
    <hkern u1="V" u2="&#x2e;" k="92" />
    <hkern u1="V" u2="&#x2d;" k="18" />
    <hkern u1="V" u2="&#x2c;" k="92" />
    <hkern u1="W" u2="u" k="18" />
    <hkern u1="W" u2="o" k="18" />
    <hkern u1="W" u2="e" k="18" />
    <hkern u1="W" u2="a" k="18" />
    <hkern u1="W" u2="A" k="74" />
    <hkern u1="W" u2="&#x3b;" k="18" />
    <hkern u1="W" u2="&#x3a;" k="18" />
    <hkern u1="W" u2="&#x2e;" k="74" />
    <hkern u1="W" u2="&#x2d;" k="18" />
    <hkern u1="W" u2="&#x2c;" k="74" />
    <hkern u1="Y" u2="v" k="18" />
    <hkern u1="Y" u2="u" k="37" />
    <hkern u1="Y" u2="q" k="55" />
    <hkern u1="Y" u2="p" k="37" />
    <hkern u1="Y" u2="o" k="55" />
    <hkern u1="Y" u2="i" k="18" />
    <hkern u1="Y" u2="e" k="55" />
    <hkern u1="Y" u2="a" k="55" />
    <hkern u1="Y" u2="A" k="37" />
    <hkern u1="Y" u2="&#x3b;" k="55" />
    <hkern u1="Y" u2="&#x3a;" k="55" />
    <hkern u1="Y" u2="&#x2e;" k="92" />
    <hkern u1="Y" u2="&#x2d;" k="74" />
    <hkern u1="Y" u2="&#x2c;" k="92" />
    <hkern u1="&#x2018;" u2="&#x2018;" k="55" />
    <hkern u1="f" u2="&#x2019;" k="-18" />
    <hkern u1="r" u2="&#x2e;" k="74" />
    <hkern u1="r" u2="&#x2d;" k="55" />
    <hkern u1="r" u2="&#x2c;" k="74" />
    <hkern u1="r" u2="&#x2019;" k="-18" />
    <hkern u1="v" u2="&#x2e;" k="74" />
    <hkern u1="v" u2="&#x2c;" k="74" />
    <hkern u1="w" u2="&#x2e;" k="55" />
    <hkern u1="w" u2="&#x2c;" k="55" />
    <hkern u1="y" u2="&#x2e;" k="74" />
    <hkern u1="y" u2="&#x2c;" k="74" />
  </font>
</defs></svg>
